allrooms.roomtype,allrooms.priceversions.priceversion,allrooms.priceversions.available,allrooms.priceversions.description,allrooms.priceversions.dimension,allrooms.priceversions.productlist,allrooms.priceversions.corematerial,allrooms.priceversions.finish,allrooms.priceversions.price,allrooms.priceversions.image,apartment,blitzproject
Master Bedroom,Luxury,true,"The textured finish in this sliding wardobe is currently in vogue and fast-moving! Combined with lacquered glass or solid colours, it is set to make your master bedroom a personal sanctuary. The loft above gives you ample storage for boxes, suitcases, and more!","12'6"" x 12'2"" + 6'7"" x 4'11""",2 Door Sliding Wardrobe,Pre Laminated Particle Board,Lacquered Glass:; Laminate Textured:,"1,40,484",http://d7gpgy8svgdhy.cloudfront.net/a9301dc/97d49881be69668b37d1beb330699eb8.jpg,Brigade Orchards_Deodar,blitz-brigade
Bathroom,Comfort,true,We've provided a simple and compact wardrobe with dresser to the master bedroom. It's got a loft above to hold all those extra boxes and suitcases. Use light solid colours like champagne and tan in the room with your bedcovers and curtains for great aesthetic effect. Go bold with the corner window seating pillows!,"12'6"" x 12'2"" + 6'7"" x 4'11""",Hinged Wardrobe and Mirror Unit,Pre Laminated Particle Board,High Gloss:; Textured:,"1,04,140",http://d7gpgy8svgdhy.cloudfront.net/a9301dc/fa3a50871ce276e386f7690b2d530ff2.jpg,,
Kids Bedroom,Luxury,true,"Adding the cabinet to your vanity ensures that the plumbing is concealed and you also get storage space for toiletries and towels. With a mirror to boot, the vanity is elegant and waterproof!","5'3"" x 8'2""",Vanity,Boiling Water Proof Ply,Suede,"19,064",http://d7gpgy8svgdhy.cloudfront.net/a9301dc/e52ff7f5bd2166bb99cf83a6b6277cf0.jpg,,
Living,Comfort,true,"Attractive and waterproof, this vanity is a must-have for your home! The cabinet not just gives you storage space for your towels and toiletries, it also covers up the plumbing with much style!","5'3"" x 8'2""",Vanity,Boiling Water Proof Ply,Suede,"21,142",http://d7gpgy8svgdhy.cloudfront.net/a9301dc/9f610ed84267bcd41add841fd4066601.jpg,,
Dining,Luxury,true,"We designed a basic and classy wardrobe for the master bedroom in Champagne and Walnut shades. The high gloss finish adds to the glamour. We’ve provided plenty of internal space within the wardrobe and in the loft. The drawers complete the wardrobe with the option of storing your cosmetics, watches and jewellery. An entertainment unit and study table to match can be added on request.","10'2"" x 14'""",Hinged Wardrobe,Pre Laminated Particle Board,Suede,"67,203",http://d7gpgy8svgdhy.cloudfront.net/a9301dc/51aac5ded69b1e7e944a9ce3eb550d7b.jpg,,
Foyer,Comfort,true,"This kids room would suit those teens who have a bright, kitschy and bold personality. We’ve used bright colours like Marigold against the backdrop of subtle shades like White. For inspiration, we’ve added prints and popular art to the room. With a three-door hinged wardrobe, a study nook replete with a cosy seating and table and open shelves, this is space will bring out the creativity in your kids. The suede finish also makes it easy to maintain.","10'2"" x 14'""",Hinged Wardrobe,Pre Laminated Particle Board,Suede,"81,629",http://d7gpgy8svgdhy.cloudfront.net/a9301dc/3ab43d03d676a35644f4c36e34b4e9b8.jpg,,
Kitchen,Luxury,true,"This well lit living room deserves a classy entertainment unit, courtesy HomeLane. Check out the suspended drawers that make it easy for you to store things and clean beneath. The combination of open and closed shelves give you plenty of room for your favourite paperbacks, trophies and knick-knacks. Set up your television and speakers for good viewing with the family!","8'4"" x 10'10""",Entertainment Unit,Pre Laminated Particle Board,High Gloss:; Textured:,"37,331",http://d7gpgy8svgdhy.cloudfront.net/a9301dc/e1c9ab838cf874bf172059b4c2622fb4.jpg,,
,Comfort,true,"We've kept a Brazilian Walnut and Champagne theme central for the living and dining areas for not just uniformity, but to enable one space flows into another in a fluid manner. This entertainment unit gives you a blend of open and closed units. So you can display some memorablia, books and CDs while you store the batteries, remotes and other accessories in the drawers. Since it's wall-mounted, you can clean below it easily without the tension of dust collecting.","8'4"" x 10'10""",Entertainment Unit,Pre Laminated Particle Board,Suede,"26,089",http://d7gpgy8svgdhy.cloudfront.net/a9301dc/9461a1863ae56b5dcea02635e346eafa.jpg,,
,Luxury,true,"You don't have to worry about dust getting trapped below the crockery shelf anymore. The crockery comes with suspended drawers that are sleek and highly functional. It has Aluminium flap-up units that are easy to use. Display your crockery, wine glasses and coffee mugs while you stow away the napkins and cutlery.","12'"" x 19'8""",Crockery Unit,Pre Laminated Particle Board,High Gloss:; Textured:,"22,956",http://d7gpgy8svgdhy.cloudfront.net/a9301dc/401ecae3772d66b931c9cf73caf8e7e6.jpg,,
,Comfort,true,"Similar to the entertainment unit, this crockery unit comes with enough room to hold your glassware, China and cutlery. If you decide to have an impromptu party, all you need is at hand. Go ahead, show off your beautiful new home design to your friends and family!","12'"" x 19'8""",Crockery Unit,Pre Laminated Particle Board,Suede,"26,332",http://d7gpgy8svgdhy.cloudfront.net/a9301dc/5dfbcb8613895e7ec02804eec9305d25.jpg,,
,Luxury,true,Now this is what we call a warm welcome! The shoe rack can hold over 5 pairs of shoes. You can turn this into a seater by topping it off with a cushion.,"5'"" x 5'""",Foyer Unit,Pre Laminated Particle Board,Suede,"12,410",http://d7gpgy8svgdhy.cloudfront.net/a9301dc/05159c7304d339d027ae8fe61ea32d38.jpg,,
,Comfort,true,This design with a shoe rack offers seating as you wear your favourite pair of heels to head out and the ledge above can hold some antiques you picked up from Thailand or Tanjavur. Now your guests also don’t have to wear their footwear into your beautiful home.,"5'"" x 5'""",Foyer Unit,Pre Laminated Particle Board,Suede,"7,300",http://d7gpgy8svgdhy.cloudfront.net/a9301dc/01598e808c4efd6eb4c88de4300ead04.jpg,,
,Luxury,true,"This parallel kitchen in Oak and Shangrila is efficient and stylish without trying too hard! We've allotted tonnes of storage for you and have kept in mind the various appliances you may need to store. Add a stool and voila!, your partner and you can spend the evening catching up while the cooking is done. The handle-less design is sleek and comes with our expert recommendation! You know you want it!","8'"" x 15'5""",Kitchen Base / Wall Units and Kitchen Wall Units,Pre Laminated Particle Board,Suede:; High Gloss:,"2,11,437",http://d7gpgy8svgdhy.cloudfront.net/a9301dc/3f30e11064f1703acf1abb450513261a.jpg,,
,Comfort,true,"This parallel kitchen in contrasting shades soaks in tonnes of natural light with the current layout. It's chic while being comfortable, giving you enough room for all your appliances (including the washing machine and dish washer) and crockery. The workflow is easily set in motion with a separate counter for your chopping. The cabinets in Wenge ensure you have no smudges or spatter of curry. The cabinets are easy to wipe down and easy to open and close. With just the right blend of open and closed wall units, you can show off that piece of China you've treasured or stock the things you need at hand always!","8'"" x 15'5""",Kitchen Base / Wall Units and Kitchen Base Units,Pre Laminated Particle Board,Suede,"1,74,630",http://d7gpgy8svgdhy.cloudfront.net/a9301dc/30b44fe160cc03d733334e9f5b73e296.jpg,,
Bathroom,Comfort,true,"Attractive and waterproof, this vanity is a must-have for your home! The cabinet not just gives you storage space for your towels and toiletries, it also covers up the plumbing with much style!","8'0"" x 5'8""",Vanity,Boiling Water Proof Ply,Suede,"12,721",http://d7gpgy8svgdhy.cloudfront.net/a9301dc/523859d6f088aa7ef87ed4b2dcf9e333.jpg,Brigade Exotica,blitz-brigade
Foyer,Luxury,false,"Attractive and waterproof, this vanity is a must-have for your home! The cabinet not just gives you storage space for your towels and toiletries, it also covers up the plumbing with much style!","8'0"" x 5'8""",Vanity,Boiling Water Proof Ply,Suede,"12,721",http://d7gpgy8svgdhy.cloudfront.net/a9301dc/523859d6f088aa7ef87ed4b2dcf9e333.jpg,,
Guest Bedroom,Comfort,true,"This foyer unit in muted shades is the perfect welcome. They can hold your shoes and give you some space to sit or even display a vase or plant. How you personalise this space is up to you, but we'd like to think we helped set the tone!","'"" x '""",Foyer Unit,Pre Laminated Particle Board,Suede,"12,410",http://d7gpgy8svgdhy.cloudfront.net/a9301dc/be6f0adda96f3a3a8964eff6d6dd5da2.jpg,,
Mbr Vanity,Luxury,true,This trendsetting foyer unit is the welcome your home needs. It stows away around 20-25 pairs of footwear and can be topped off with a cushion for easy seating. We recommend you accessorise the space with potted plants and abstract design wall paper.,"10'6"" x 5'11""",Foyer Unit,Pre Laminated Particle Board,High Gloss,"21,749",http://d7gpgy8svgdhy.cloudfront.net/a9301dc/37410c817964fa68aa1adcc4021061b1.jpg,,
Bedroom 4,Luxury,true,The 3-door Armadio is one of HomeLane's specialties. We recommend getting an Armadio when space is limited in your bedroom or if you want something this good looking in your room! The sliding doors also come with full-length mirror. There's plenty of storage space inside for all your clothes. Ensure you get the right internal accessories to make organisation a breeze. The shades used give your room a very serene feel.,"14'1"" x 13'9""",Mirror Unit and Dresser Unit,Pre Laminated Particle Board,Suede:; Textured:,"24,424",http://d7gpgy8svgdhy.cloudfront.net/a9301dc/97d49881be69668b37d1beb330699eb8.jpg,,
Kids Bedroom,Comfort,true,"Basic but beautiful, that's the guest room for you. Make sure your friends and family want for nothing when they stay over. The 4-door wardrobe in Black Oak and Royal White has plenty of storage to accommodate your guests' clothes, as well as extra bed linen, towels and toiletries you might want to store.","15'1"" x 13'1""",Hinged Wardrobe,Pre Laminated Particle Board,Suede,"64,332",http://d7gpgy8svgdhy.cloudfront.net/a9301dc/54f67677a9b6486e3201e09b8af14752.jpg,,
Master Bedroom,Luxury,true,"Adding the cabinet to your vanity ensures that the plumbing is concealed and you also get storage space for toiletries and towels. With a mirror to boot, the vanity is elegant and waterproof!","9'6"" x 9'2""",Vanity and Mirror,Boiling Water Proof Ply,Suede,"26,782",http://d7gpgy8svgdhy.cloudfront.net/a9301dc/dab554271f083fa7f03225cf99766ad6.jpg,,
Drawing Room,Comfort,false,"Adding the cabinet to your vanity ensures that the plumbing is concealed and you also get storage space for toiletries and towels. With a mirror to boot, the vanity is elegant and waterproof!","9'6"" x 9'2""",Vanity and Mirror,Boiling Water Proof Ply,Suede,"26,782",http://d7gpgy8svgdhy.cloudfront.net/a9301dc/dab554271f083fa7f03225cf99766ad6.jpg,,
Dining,Comfort,true,This contemporary bedroom is fit for the kings! Just look at the clean lines of the glossy Armadio wardrobe for him-and-her and the neatly tucked in entertainment unit and dresser! If this design doesn’t satisfy your requirements — with the classy look and tonnes of storage — we don’t know what else will!,"14'9"" x 13'2""",Entertainment Unit Cum Dresser and Dresser,Pre Laminated Particle Board,High Gloss,"24,351",http://d7gpgy8svgdhy.cloudfront.net/a9301dc/2bce510257d0a1bfd6a8d78cd9af7138.jpg,,
Living,Luxury,true,"We believe the master bedroom should have space for him and her without taking away the natural appeal of the room. So we've given you a beautiful Armadio, HomeLane's specialty sliding wardrobe which gets rid of the ugly lofts most rooms come with and adds somem glamour to your room. We also found space for a dresser with mirror, an entertainment unit and a study nook! It's a room for all seasons!","13'5"" x 14'5""",2 Door Armadio Wardrobe,Pre Laminated Particle Board,Lacquered Glass:; Laminate Hg:,"1,73,247",http://d7gpgy8svgdhy.cloudfront.net/a9301dc/96865eba5a912b7e174542ac63a8f184.jpg,,
Study Room,Comfort,true,"What a modish look! The kids room is contemporary in design and has been fitted with a 4-door wardrobe, mirror and shelf. It's got ample storage for two and open space for the stuff they need at hand every day.","12'1"" x 17'6""",Study Cum Entertainment Unit,Pre Laminated Particle Board,Suede,"26,626",http://d7gpgy8svgdhy.cloudfront.net/a9301dc/1053648de8ef3709c3ade3c37b9a1f14.jpg,,
Kitchen,Luxury,true,"We've revved up a beautiful contrast in the kids room for their vibrant personalities. The Armadio floor-to-ceiling wardrobe is stunning and gender-neutral. It easily puts away all their essentials, and sliding doors have been provided taking into consideration space constraints. We've also accommodated a study table and open shelves for their computer and books. All the components have a wipe-clean finish. We recommend you personalise this room with pictures, trophies and art work.","12'10"" x 13'1""",2 Door Armadio Wardrobe and Study Table,Pre Laminated Particle Board,High Gloss:; Textured:,"1,89,528",http://d7gpgy8svgdhy.cloudfront.net/a9301dc/a48fae2d84f7c7fc6f011d375e7a813e.jpg,,
,Comfort,true,"Compact in design and rustic in feel, the entertainment unit comes with panelling that hides the messy wiring. The ledge gives you enough space for your set-top box and other display articles. The adjoining shelf is a combination of open and closed units. All your favourite books and souvenirs can be displayed on these shelves. Match the wallpaper to the unit to give the entire room an amazing look.","14'1"" x 16'1"" + 3'10"" x 5'9""",Entertainment Unit,Pre Laminated Particle Board,Suede:; High Gloss:,"27,153",http://d7gpgy8svgdhy.cloudfront.net/a9301dc/5c0ccd68afb586332cbaf5a5d009aa2b.jpg,,
,Luxury,true,This classy 3-door Armadio is one of HomeLane's specialties. We recommend getting an Armadio when space is limited in your bedroom or if you want something this good looking in your room! The sliding doors also come with full-length mirror. There's plenty of storage space inside for all your clothes. Ensure you get the right internal accessories to make organisation a breeze. The shades used give your room a very serene feel.,"14'5"" x 17'3"" + 9'6"" x 5'6""",3 Door Armadio Wardrobe and Chest Of Drawers,Pre Laminated Particle Board,Lacquered Glass:; Laminate Hg:,"2,23,549",http://d7gpgy8svgdhy.cloudfront.net/a9301dc/09b660273fd8e53133f798ec3a96cc95.jpg,,
,Comfort,true,"Warm, welcoming shades like this Acacia Cream and Berry Bunch give a space the class it needs. This design can be easily adopted by anyone and personalised — whether you’re a busy couple constantly on the move or a writer working from home. In this contemporary design, the TV unit is wall-mounted to save space and the panelling puts away the ugly mess of wires away.","16'3"" x 12'1""",Entertainment Unit,Pre Laminated Particle Board,Suede:; High Gloss:,"35,655",http://d7gpgy8svgdhy.cloudfront.net/a9301dc/e1d655e487298388478a82ee17e83b6c.jpg,,
,Luxury,false,"Warm, welcoming shades like this Acacia Cream and Berry Bunch give a space the class it needs. This design can be easily adopted by anyone and personalised — whether you’re a busy couple constantly on the move or a writer working from home. In this contemporary design, the TV unit is wall-mounted to save space and the panelling puts away the ugly mess of wires away.","16'3"" x 12'1""",Entertainment Unit,Pre Laminated Particle Board,Suede:; High Gloss:,"35,655",http://d7gpgy8svgdhy.cloudfront.net/a9301dc/e1d655e487298388478a82ee17e83b6c.jpg,,
,Comfort,true,"The living room is adorned with an entertainment unit that fits in effortlessly and serves so many purposes! Mount your TV on the wall, stow away manuals, remotes and batteries and place your coveted pieces of art on display! The shelf also provides room for your favourite paperback. Get this entertainment unit, sit back and enjoy news hour with the family!","16'3"" x 12'1""",Crockery Unit,Pre Laminated Particle Board,Suede:; High Gloss:,"41,458",http://d7gpgy8svgdhy.cloudfront.net/a9301dc/6ce1bb449fae6615b3688d0838fba9d2.jpg,,
,Luxury,true,"This stunning crockery unit is fit for a king! With plenty of room to display your wine glasses, expensive China and serving dishes. There are many drawers to hold your napkins, cutlery and placemats. The pop of colour certainly makes the entire unit more appealing! Make it yours!","17'7"" x 14'9""",Crockery Unit,Pre Laminated Particle Board,High Gloss,"39,448",http://d7gpgy8svgdhy.cloudfront.net/a9301dc/89fb916fe63f721382a11e2343682084.jpg,,
,Comfort,true,"This foyer unit in muted shades is the perfect welcome. They can hold your shoes and give you some space to sit or even display a vase or plant. How you personalise this space is up to you, but we'd like to think we helped set the tone!","31'7"" x 13'1""",Entertainment Unit,Pre Laminated Particle Board,Suede,"58,961",http://d7gpgy8svgdhy.cloudfront.net/a9301dc/7de23947bb611513100187a43f51d7af.jpg,,
,Luxury,true,"This crockery unit fits right into your floor plan and isn't imposing at all! The colours are delightful, and the design gives you space for your fine China and wine glasses. The drawers can hold place mats, table runners, candles, cutlery and more! Add some spotlights to add to the glamour. This piece is bound to make your neighbours envious.","18'4"" x 15'9""",Entertainment Unit,Pre Laminated Particle Board,High Gloss,"63,579",http://d7gpgy8svgdhy.cloudfront.net/a9301dc/2edb55e8d57365688f6e170fa1716f38.jpg,,
,Luxury,true,"This study room can be used as a home office/library/guest room. It's something for the whole family to use. Add a sofa-cum-bed and use it when guests come to stay over. The wardrobe gives you ample space for your extra linen and towels. It's a perfect setup for those who work from home. With ample sunlight flooding in, the design ushers in great energy as you work.","9'6"" x 7'7""",Hinged Wardrobe and Study Table,Pre Laminated Particle Board,High Gloss:; Textured:,"80,943",http://d7gpgy8svgdhy.cloudfront.net/a9301dc/fef0b2768439320d7bb427e29795c870.jpg,,
,Comfort,false,"This study room can be used as a home office/library/guest room. It's something for the whole family to use. Add a sofa-cum-bed and use it when guests come to stay over. The wardrobe gives you ample space for your extra linen and towels. It's a perfect setup for those who work from home. With ample sunlight flooding in, the design ushers in great energy as you work.","9'6"" x 7'7""",Hinged Wardrobe and Study Table,Pre Laminated Particle Board,High Gloss:; Textured:,"80,943",http://d7gpgy8svgdhy.cloudfront.net/a9301dc/fef0b2768439320d7bb427e29795c870.jpg,,
,Comfort,true,This mix of warm colours adds the much-needed charm to the kitchen. It is equipped with plenty of room for all your needs. The laminates are easy to maintain and clean. Using lighter shades like this also make the space look bigger. Personalise the interiors with accessories to suit your need. ,"10'4"" x 11'9"" + 6'4"" x 9'2""",Kitchen Base / Wall Tall ,Pre Laminated Particle Board,Acrylic:; Lam Hgl:,"2,56,341",http://d7gpgy8svgdhy.cloudfront.net/a9301dc/10c435f509d44ac271a649b5d253ce93.jpg,,
,Luxury,true,"This kitchen is sleek in finish and stylish with an unsual contrast of shades. It comes with plenty of room for crockery, condiments and snacks! Easy to wipe down and maintain, this kitchen is just what you need!","10'4"" x 11'9"" + 6'4"" x 9'2""",Kitchen Base / Wall Tall ,Pre Laminated Particle Board,Acrylic:; Lam Hgl:,"2,92,818",http://d7gpgy8svgdhy.cloudfront.net/a9301dc/e2c9e2f91e6c057ce06b164c3becbc9a.jpg,,
Kitchen,Comfort,true,"This parallel kitchen in contrasting shades soaks in tonnes of natural light with the current layout. It's chic while being comfortable, giving you enough room for all your appliances (including the washing machine and dish washer) and crockery. The workflow is easily set in motion with a separate counter for your chopping. The cabinets in Wenge ensure you have no smudges or spatter of curry. The cabinets are easy to wipe down and easy to open and close. With just the right blend of open and closed wall units, you can show off that piece of China you've treasured or stock the things you need at hand always!","10'4"" x 11'9"" + 6'4"" x 9'2""",Kitchen Base / Wall Units,Pre Laminated Particle Board,Suede,"1,71,238",http://d7gpgy8svgdhy.cloudfront.net/a9301dc/ff6ca683a5016cef7c55ea2a8193c1e5.jpg,Lakefront Blue_4BHK,blitz-brigade
Foyer,Luxury,true,"This parallel kitchen in Oak and Shangrila is efficient and stylish without trying too hard! We've allotted tonnes of storage for you and have kept in mind the various appliances you may need to store. Add a stool and voila!, your partner and you can spend the evening catching up while the cooking is done. The handle-less design is sleek and comes with our expert recommendation! You know you want it!","10'4"" x 11'9"" + 6'4"" x 9'2""",Kitchen Base / Wall Tall ,Pre Laminated Particle Board,Suede:; High Gloss:,"1,95,287",http://d7gpgy8svgdhy.cloudfront.net/a9301dc/da6fb606a004e8e726b8e03045f10d31.jpg,,
Living,Comfort,true,"This foyer unit in muted shades is the perfect welcome. They can hold your shoes and give you some space to sit or even display a vase or plant. How you personalise this space is up to you, but we'd like to think we helped set the tone!","'"" x '""",Foyer Unit,Pre Laminated Particle Board,Suede,"12,410",http://d7gpgy8svgdhy.cloudfront.net/a9301dc/be6f0adda96f3a3a8964eff6d6dd5da2.jpg,,
Dining,Luxury,true,This trendsetting foyer unit is the welcome your home needs. It stows away around 20-25 pairs of footwear and can be topped off with a cushion for easy seating. We recommend you accessorise the space with potted plants and abstract design wall paper.,"10'6"" x 5'11""",Foyer Unit,Pre Laminated Particle Board,Acrylic:; Lam Hgl:,"21,749",http://d7gpgy8svgdhy.cloudfront.net/a9301dc/37410c817964fa68aa1adcc4021061b1.jpg,,
Drawing Room,Comfort,true,"This foyer unit in muted shades is the perfect welcome. They can hold your shoes and give you some space to sit or even display a vase or plant. How you personalise this space is up to you, but we'd like to think we helped set the tone!","31'7"" x 13'1""",Entertainment Unit,Pre Laminated Particle Board,Suede:; High Gloss:,"58,961",http://d7gpgy8svgdhy.cloudfront.net/a9301dc/7de23947bb611513100187a43f51d7af.jpg,,
Bedroom 4,Luxury,true,"This crockery unit fits right into your floor plan and isn't imposing at all! The colours are delightful, and the design gives you space for your fine China and wine glasses. The drawers can hold place mats, table runners, candles, cutlery and more! Add some spotlights to add to the glamour. This piece is bound to make your neighbours envious.","18'4"" x 15'9""",Entertainment Unit,Pre Laminated Particle Board,Acrylic:; Lam Hgl:,"63,579",http://d7gpgy8svgdhy.cloudfront.net/a9301dc/3b2708be983e02189610fca7e6d9821b.jpg,,
Guest Bedroom,Comfort,true,"The living room is adorned with an entertainment unit that fits in effortlessly and serves so many purposes! Mount your TV on the wall, stow away manuals, remotes and batteries and place your coveted pieces of art on display! The shelf also provides room for your favourite paperback. Get this entertainment unit, sit back and enjoy news hour with the family!","16'3"" x 12'1""",Crockery Unit,Pre Laminated Particle Board,Suede:; High Gloss:,"41,458",http://d7gpgy8svgdhy.cloudfront.net/a9301dc/6ce1bb449fae6615b3688d0838fba9d2.jpg,,
Bathroom,Luxury,true,"This stunning crockery unit is fit for a king! With plenty of room to display your wine glasses, expensive China and serving dishes. There are many drawers to hold your napkins, cutlery and placemats. The pop of colour certainly makes the entire unit more appealing! Make it yours!","17'7"" x 14'9""",Crockery Unit,Pre Laminated Particle Board,Acrylic:; Lam Hgl:,"39,448",http://d7gpgy8svgdhy.cloudfront.net/a9301dc/c119bb28b327a6e962d4edb386f732a5.jpg,,
Kids Bedroom,Comfort,true,The wall panelling hides the hideous tangle of wires while the combination of open units and drawers balance storage and display space. You can show off souvenirs from your trips and hide all the remote controls and manuals. The sleek look in Irish Walnut and Slate shades are designed to suit any room and personality. The suede finish ensures your furniture doesn't get stained and is easy to clean and maintain.,"16'3"" x 12'1""",Entertainment Unit,Pre Laminated Particle Board,High Gloss:; Textured:,"35,655",http://d7gpgy8svgdhy.cloudfront.net/a9301dc/e65cc70b3a70efabf119de6bbe1ff074.jpg,,
Master Bedroom,Luxury,false,The wall panelling hides the hideous tangle of wires while the combination of open units and drawers balance storage and display space. You can show off souvenirs from your trips and hide all the remote controls and manuals. The sleek look in Irish Walnut and Slate shades are designed to suit any room and personality. The suede finish ensures your furniture doesn't get stained and is easy to clean and maintain.,"16'3"" x 12'1""",Entertainment Unit,Pre Laminated Particle Board,High Gloss:; Textured:,"35,655",http://d7gpgy8svgdhy.cloudfront.net/a9301dc/e65cc70b3a70efabf119de6bbe1ff074.jpg,,
Mbr Vanity,Comfort,true,This contemporary bedroom is fit for the kings! Just look at the clean lines of the glossy Armadio wardrobe for him-and-her and the neatly tucked in entertainment unit and dresser! If this design doesn’t satisfy your requirements — with the classy look and tonnes of storage — we don’t know what else will!,"14'9"" x 13'2""",2 Door Armadio Wardrobe,Pre Laminated Particle Board,Suede,"1,76,314",http://d7gpgy8svgdhy.cloudfront.net/a9301dc/2bce510257d0a1bfd6a8d78cd9af7138.jpg,,
,Luxury,true,"We believe the master bedroom should have space for him and her without taking away the natural appeal of the room. So we've given you a beautiful Armadio, HomeLane's specialty sliding wardrobe which gets rid of the ugly lofts most rooms come with and adds somem glamour to your room. We also found space for a dresser with mirror, an entertainment unit and a study nook! It's a room for all seasons!","13'5"" x 14'5""",2 Door Armadio Wardrobe and Study Cum Entertainment Unit,Pre Laminated Particle Board,Lacquered Glass:; Laminate Hg:,"1,73,247",http://d7gpgy8svgdhy.cloudfront.net/a9301dc/96865eba5a912b7e174542ac63a8f184.jpg,,
,Comfort,true,"Basic but beautiful, that's the guest room for you. Make sure your friends and family want for nothing when they stay over. The 4-door wardrobe in Black Oak and Royal White has plenty of storage to accommodate your guests' clothes, as well as extra bed linen, towels and toiletries you might want to store.","15'1"" x 13'1""",Hinged Wardrobe,Pre Laminated Particle Board,Suede,"64,332",http://d7gpgy8svgdhy.cloudfront.net/a9301dc/54f67677a9b6486e3201e09b8af14752.jpg,,
,Luxury,true,We recommend getting a sliding wardrobe when space is limited in your bedroom or if you want something this good looking in your room! There's plenty of storage space inside for all your clothes. Ensure you get the right internal accessories to make organisation a breeze. The shades used give your room a very serene feel.,"14'1"" x 13'9""",2 Door Sliding Wardrobe With Aluminium Framed Shutter and Dresser Unit,Pre Laminated Particle Board,Suede:; Textured:,"93,031",http://d7gpgy8svgdhy.cloudfront.net/a9301dc/b29fee23892deb128f3fcefd68d0a5e9.jpg,,
,Comfort,true,"Attractive and waterproof, this vanity is a must-have for your home! The cabinet not just gives you storage space for your towels and toiletries, it also covers up the plumbing with much style!","8'0"" x 5'8""",Vanity,Boiling Water Proof Ply,Suede,"12,721",http://d7gpgy8svgdhy.cloudfront.net/a9301dc/523859d6f088aa7ef87ed4b2dcf9e333.jpg,,
,Luxury,false,"Attractive and waterproof, this vanity is a must-have for your home! The cabinet not just gives you storage space for your towels and toiletries, it also covers up the plumbing with much style!","8'0"" x 5'8""",Vanity,Boiling Water Proof Ply,Suede,"12,721",http://d7gpgy8svgdhy.cloudfront.net/a9301dc/523859d6f088aa7ef87ed4b2dcf9e333.jpg,,
,Comfort,true,"What a modish look! The kids room is contemporary in design and has been fitted with a 4-door wardrobe, mirror and shelf. It's got ample storage for two and open space for the stuff they need at hand every day.","12'1"" x 17'6""",Hinged Wardrobe With Dresser,Pre Laminated Particle Board,Suede,"81,312",http://d7gpgy8svgdhy.cloudfront.net/a9301dc/631cb8cf8cee3a20a395ff2798ffccf0.jpg,,
,Luxury,true,"We've revved up a beautiful contrast in the kids room for their vibrant personalities. The Armadio floor-to-ceiling wardrobe is stunning and gender-neutral. It easily puts away all their essentials, and sliding doors have been provided taking into consideration space constraints. We've also accommodated a study table and open shelves for their computer and books. All the components have a wipe-clean finish. We recommend you personalise this room with pictures, trophies and art work.","12'10"" x 13'1""",2 Door Armadio Wardrobe and Study Table,Pre Laminated Particle Board,High Gloss:; Textured:,"1,89,528",http://d7gpgy8svgdhy.cloudfront.net/a9301dc/a48fae2d84f7c7fc6f011d375e7a813e.jpg,,
,Comfort,true,"Compact in design and rustic in feel, the entertainment unit comes with panelling that hides the messy wiring. The ledge gives you enough space for your set-top box and other display articles. The adjoining shelf is a combination of open and closed units. All your favourite books and souvenirs can be displayed on these shelves. Match the wallpaper to the unit to give the entire room an amazing look.","14'1"" x 16'1"" + 3'10"" x 5'9""",Entertainment Unit,Pre Laminated Particle Board,Suede:; High Gloss:,"27,153",http://d7gpgy8svgdhy.cloudfront.net/a9301dc/d316e9234520669150c99d450772ab2e.jpg,,
,Luxury,true,This classy 3-door Armadio is one of HomeLane's specialties. We recommend getting an Armadio when space is limited in your bedroom or if you want something this good looking in your room! The sliding doors also come with full-length mirror. There's plenty of storage space inside for all your clothes. Ensure you get the right internal accessories to make organisation a breeze. The shades used give your room a very serene feel.,"14'5"" x 17'3"" + 9'6"" x 5'6""",3 Door Armadio Wardrobe and Chest Of Drawers,Pre Laminated Particle Board,Lacquered Glass:; Laminate Hg:,"2,23,549",http://d7gpgy8svgdhy.cloudfront.net/a9301dc/09b660273fd8e53133f798ec3a96cc95.jpg,,
,Luxury,true,"Adding the cabinet to your vanity ensures that the plumbing is concealed and you also get storage space for toiletries and towels. With a mirror to boot, the vanity is elegant and waterproof!","9'6"" x 9'2""",Vanity and Mirror,Boiling Water Proof Ply,Suede:Auburn Oak,"26,782",http://d7gpgy8svgdhy.cloudfront.net/a9301dc/dab554271f083fa7f03225cf99766ad6.jpg,,
,Comfort,false,"Adding the cabinet to your vanity ensures that the plumbing is concealed and you also get storage space for toiletries and towels. With a mirror to boot, the vanity is elegant and waterproof!","9'6"" x 9'2""",Vanity and Mirror,Boiling Water Proof Ply,Suede:Auburn Oak,"26,782",http://d7gpgy8svgdhy.cloudfront.net/a9301dc/dab554271f083fa7f03225cf99766ad6.jpg,,
Foyer,Comfort,true,"This cosy-looking foyer unit stows away your footwear and lets you sit on it while you do so. You should definitely accessorise the foyer, just as we have, with paintings or wall art to make the space more welcoming.","8'"" x 4'""",Foyer Unit,Pre Laminated Particle Board,Suede,"7,300",http://d7gpgy8svgdhy.cloudfront.net/a9301dc/bc934d4adbce85950ec178213c19959e.jpg,Brigade Orchards_Cedar,blitz-brigade
Living,Luxury,true,"In this instance, we’ve designed the shoe rack seater close to the entertainment unit so that we don’t waste any space. You’re still left with space to put up paintings, plants and whatever you fancy, to welcome your guests. The muted tones are so relaxing, with just a pop of colour.","8'"" x 4'""",Foyer Unit,Pre Laminated Particle Board,Suede,"7,300",http://d7gpgy8svgdhy.cloudfront.net/a9301dc/a53f79bf93e0eb1984957a73006ba67c.jpg,,
Dining,Comfort,true,"While trying to give you a great living room with adequate storage, our designers decided to go all minimalistic. It saves space and looks great on the eyes. So show off your child's trophy or your favourite souvenirs on the open shelves, store your DVDs in the drawers and tuck away all the unnecessary and unsightly tangle of wires.","8'"" x 9'10""",Entertainment Unit,Pre Laminated Particle Board,Suede,"14,533",http://d7gpgy8svgdhy.cloudfront.net/a9301dc/989c36e750964fff6eaa79d87e6dcdee.jpg,,
Kitchen,Luxury,true,"Bask in natural light as you lounge in the living room. Dress up the tall windows with light material to keep the contemporary light look going. The entertainment is attractive and with a panel that hides the messy wiring, you’ll be relieved when this is set up. Go for contrasting shades while selecting your sofa to complete this look.","8'"" x 9'10""",Entertainment Unit,Pre Laminated Particle Board,Suede,"20,360",http://d7gpgy8svgdhy.cloudfront.net/a9301dc/033ea16899f313e7584bbd7cf7313136.jpg,,
Master Bedroom,Comfort,true,"The dining cabinet that's attached to the entertainment unit is a semi-tall unit, giving you enough space for your special crockery without getting in the way or using up all the space. It's neat and subtle in its shade and design.","12'"" x 11'3""",Crockery Unit,Pre Laminated Particle Board,Suede,"15,639",http://d7gpgy8svgdhy.cloudfront.net/a9301dc/108ff70ecbb4559feb0216f8f088a2e9.jpg,,
Kids Bedroom,Luxury,true,"The dining space is quaint and just right for a small family. There is a simple, wall-mounted crockery unit for your essentials like table mats, plates and glasses. Ensure you add a few elements of your personal taste. Then you’ll truly own this design.","12'"" x 11'3""",Crockery Unit,Pre Laminated Particle Board,Suede,"18,972",http://d7gpgy8svgdhy.cloudfront.net/a9301dc/8f55321ec05f73d0395e7ddb0e32ef51.jpg,,
,Comfort,true,"This parallel kitchen in contrasting shades soaks in tonnes of natural light with the current layout. It's chic while being comfortable, giving you enough room for all your appliances (including the washing machine and dish washer) and crockery. The workflow is easily set in motion with a separate counter for your chopping. The cabinets in Wenge ensure you have no smudges or spatter of curry. The cabinets are easy to wipe down and easy to open and close. With just the right blend of open and closed wall units, you can show off that piece of China you've treasured or stock the things you need at hand always!","11'6"" x 6'10""",Kitchen Base / Wall Units,Pre Laminated Particle Board,Suede,"1,80,234",http://d7gpgy8svgdhy.cloudfront.net/a9301dc/f3e8a8c311c6989f9711d2ecb8474922.jpg,,
,Luxury,true,"Contemporary and minimalistic in style, you will find yourself immensely comfortable with this layout. With several elements — few glass units, open shelves and closed ones, these cabinets are handle-less and easy-to-maintain. Space for everything and finishes that can be cleaned easily, this kitchen is ideal for a busy family.","11'6"" x 6'10""",Kitchen Base / Wall Units,Pre Laminated Particle Board,Suede,"1,56,259",http://d7gpgy8svgdhy.cloudfront.net/a9301dc/1b412f19d290483d7fe85177b31a83d4.jpg,,
,Comfort,true,"We designed a basic and classy wardrobe for the master bedroom in Champagne and Walnut shades. The high gloss finish adds to the glamour. We’ve provided plenty of internal space within the wardrobe and in the loft. The drawers complete the wardrobe with the option of storing your cosmetics, watches and jewellery. An entertainment unit and study table to match can be added on request.","12'1"" x 10'6""",Hinged Wardrobe,Pre Laminated Particle Board,Suede,"71,189",http://d7gpgy8svgdhy.cloudfront.net/a9301dc/8127d2be1aab156fa900c02d59f9ebd9.jpg,,
,Luxury,true,"Inspired by a Modern Minimalist sensibility, the muted colours with a dark contrast serves the needs of an urban working couple. Apart from space for both your clothes, the design also accommodates a study nook for the days you want to work from home. Add some abstract or Boho-chic paintings and rugs to the design and you’re good to go!","12'1"" x 10'6""",Hinged Wardrobe With Dresser,Pre Laminated Particle Board,Suede,"84,690",http://d7gpgy8svgdhy.cloudfront.net/a9301dc/40e161014e415396f178bad55a61b97f.jpg,,
,Comfort,true,"This room exudes freshness and fun - just how a kids room should be. The 2-door hinged wardrobe can hold your child's uniforms, partywear, shoes and more! It also fits snugly into the corner. Must buy, we say!","10'4"" x 10'11""",Hinged Wardrobe and Study Table,Pre Laminated Particle Board,Suede,"57,312",http://d7gpgy8svgdhy.cloudfront.net/a9301dc/19602177c24514c7a69bce3387479c38.jpg,,
,Luxury,true,"This is the stuff of dreams, with ample storage space — both open and closed, a study table, loft. This design is also great if you’re having guests or your parents come over for the weekend. It is vibrant without being too loud. The 3-door hinged wardrobe in glossy and matte finish can be easily used by two persons. We’re pretty sure your kids are begging for this design by now.","10'4"" x 10'11""",Hinged Wardrobe With Dresser,Pre Laminated Particle Board,Suede,"83,864",http://d7gpgy8svgdhy.cloudfront.net/a9301dc/8c81886179f606670f7d53d6b5389906.jpg,,
Master Bedroom,Comfort,true,This 4-door hinged wardrobe and loft is all you need for the master bedroom. It gives you ample space for his-and-her clothes and more! Its muted tones will suit any personality and keep the atmosphere light - just what you need in a bedroom.,"10'6"" x 10'10""",Hinged Wardrobe and Entertainment Unit,Pre Laminated Particle Board,Suede,"90,930",http://d7gpgy8svgdhy.cloudfront.net/a9301dc/e22d78075b334b8d176a001da152492f.jpg,Panorama,blitz-brigade
Kids Bedroom,Luxury,true,The master bedroom has been fitted with a 2-door Armadio in swanky shades. The Armadio combine the loft and wardrobe to give you one big storage space. Add some space organisers internally for a neat wardrobe.,"10'6"" x 10'10""",3 Door Armadio Wardrobe and Chest Of Drawers,Pre Laminated Particle Board,High Gloss,"1,99,443",http://d7gpgy8svgdhy.cloudfront.net/a9301dc/09b660273fd8e53133f798ec3a96cc95.jpg,,
Living,Comfort,true,Designing your child's room is a pleasure for us because it takes us back in time too! Look at the sleek 4-door hinged wardrobe we've added. It gives your kids plenty of space for their uniforms and occasion-wear. Do up the walls and add a pouf to the ensemble to make it playful and light.,"10'6"" x 11'8""",Hinged Wardrobe,Pre Laminated Particle Board,Suede:; High Gloss:,"74,088",http://d7gpgy8svgdhy.cloudfront.net/a9301dc/8c907630ec106b33c4ee0acac3465414.jpg,,
Dining,Luxury,true,"And pop, goes the easel! We got playful designing your child's room and decided to give the all-time favourite pink a chance to shine through this 3-door wardrobe. It is compact, comes with plenty of space and is easy to clean and maintain.","10'6"" x 11'8""",Hinged Wardrobe and Study Table,Pre Laminated Particle Board,High Gloss,"70,627",http://d7gpgy8svgdhy.cloudfront.net/a9301dc/0985060b797af6f17a5e0ab51f50bb44.jpg,,
Kitchen,Comfort,true,"We've blended open and closed units for this entertainment unit. Show off your craftwork in the open units and hide those remotes, extra batteries and more in the closed units. It's compact, easy to dust and wipe-clean. It fits the wall quite snugly without cluttering up the room. What a great space to relax with the family and watch a movie!","10'1"" x 15'5""",Entertainment Unit,Pre Laminated Particle Board,Suede,"24,909",http://d7gpgy8svgdhy.cloudfront.net/a9301dc/07ae493a4e866476a0f613e60a05aedd.jpg,,
,Luxury,true,Entertainment zones are meant to be relaxing and non-fussy with minimum clutter. We've given you a combination of open and closed cabinets to show off and stow away your stuff. The TV fits snugly into the frame we've designed. So kick back and enjoy movie nights with the family!,"10'1"" x 15'5""",Entertainment Unit,Pre Laminated Particle Board,High Gloss:; Textured:,"23,216",http://d7gpgy8svgdhy.cloudfront.net/a9301dc/6ad713ab3d6e98dbab970fa0350b1473.jpg,,
,Comfort,true,"We've blended open and closed units for this entertainment unit. Show off your craftwork in the open units and hide those remotes, extra batteries and more in the closed units. It's compact, easy to dust and wipe-clean. It fits the wall quite snugly without cluttering up the room. What a great space to relax with the family and watch a movie!","10'1"" x 15'5""",Crockery Unit,Pre Laminated Particle Board,Suede,"16,028",http://d7gpgy8svgdhy.cloudfront.net/a9301dc/db9e09c3bce7b4c70802560ad32066cc.jpg,,
,Luxury,true,"Take one look at this crockery unit and tell us you don't want to throw a party just to show this off! It's compact and elegant - quite a rare combination. There's ample room to show off the wine glasses and crockery, and to store cutlery and napkins. This blend of open and closed spaces works, don't you think?","10'1"" x 15'5""",Crockery Unit,Pre Laminated Particle Board,High Gloss,"21,885",http://d7gpgy8svgdhy.cloudfront.net/a9301dc/54951965c5d4b4a9d9d10e53c32b432d.jpg,,
,Comfort,true,"This is what we call a smart kitchen. It's stylish in design and keeps the space light and airy. The laminates don't stain easily and can be wiped clean after your culinary experiments. We've waterproofed the sink unit with boiling waterproof ply. There's ample space for all your appliances, utensils, jars of condiments and more! Just add the right internal accessories and you're good to go!","11'9"" x 8'4""",Kitchen Base / Wall Units,Pre Laminated Particle Board,Suede,"1,32,398",http://d7gpgy8svgdhy.cloudfront.net/a9301dc/550f3c9998e6bf4c2f2ce43a7304b67e.jpg,,
,Luxury,true,"This kitchen is modern and trend-setting. It comes equipped with ample space for all your cookware, condiments and culinary contraptions! These laminates don't stain easily, in case you're wondering. Pick the soft close for your drawers and flap-ups and add some really cool accessories for the cabinets to make organising the kitchen a breeze!","11'9"" x 8'4""",Kitchen Base / Wall Units,Pre Laminated Particle Board,Suede:; High Gloss:,"1,42,229",http://d7gpgy8svgdhy.cloudfront.net/a9301dc/d707854f1b4f3dead6b73fbc85228a5e.jpg,,
Master Bedroom,Comfort,true,This 4-door hinged wardrobe and loft is all you need for the master bedroom. It gives you ample space for his-and-her clothes and more! Its muted tones will suit any personality and keep the atmosphere light - just what you need in a bedroom.,"10'6"" x 10'10""",Hinged Wardrobe and Entertainment Unit,Pre Laminated Particle Board,Suede,"90,930",http://d7gpgy8svgdhy.cloudfront.net/a9301dc/7507d66e889bf1e4b88996c86c6bfe63.jpg,Plumeria,blitz-brigade
Kids Bedroom,Luxury,true,The master bedroom has been fitted with a 2-door Armadio in swanky shades. The Armadio combine the loft and wardrobe to give you one big storage space. Add some space organisers internally for a neat wardrobe.,"10'6"" x 10'10""",3 Door Armadio Wardrobe and Chest Of Drawers,Pre Laminated Particle Board,High Gloss,"1,99,443",http://d7gpgy8svgdhy.cloudfront.net/a9301dc/994b812761b0bceb39fceb9b2f3dc0e2.jpg,,
Living,Comfort,true,Designing your child's room is a pleasure for us because it takes us back in time too! Look at the sleek 4-door hinged wardrobe we've added. It gives your kids plenty of space for their uniforms and occasion-wear. Do up the walls and add a pouf to the ensemble to make it playful and light.,"10'6"" x 11'8""",Hinged Wardrobe,Pre Laminated Particle Board,Suede:; High Gloss:,"74,088",http://d7gpgy8svgdhy.cloudfront.net/a9301dc/4c3fe376d75bde5c658f884f7629df71.jpg,,
Dining,Luxury,true,"And pop, goes the easel! We got playful designing your child's room and decided to give the all-time favourite pink a chance to shine through this 3-door wardrobe. It is compact, comes with plenty of space and is easy to clean and maintain.","10'6"" x 11'8""",Hinged Wardrobe and Study Table,Pre Laminated Particle Board,High Gloss,"70,627",http://d7gpgy8svgdhy.cloudfront.net/a9301dc/eaa7611ebaedf735443ba6b844809d81.jpg,,
Kitchen,Comfort,true,"We've blended open and closed units for this entertainment unit. Show off your craftwork in the open units and hide those remotes, extra batteries and more in the closed units. It's compact, easy to dust and wipe-clean. It fits the wall quite snugly without cluttering up the room. What a great space to relax with the family and watch a movie!","10'1"" x 15'5""",Entertainment Unit,Pre Laminated Particle Board,Suede,"24,909",http://d7gpgy8svgdhy.cloudfront.net/a9301dc/021fce4e56374b139f31c80a0b8b8c92.jpg,,
,Luxury,true,Entertainment zones are meant to be relaxing and non-fussy with minimum clutter. We've given you a combination of open and closed cabinets to show off and stow away your stuff. The TV fits snugly into the frame we've designed. So kick back and enjoy movie nights with the family!,"10'1"" x 15'5""",Entertainment Unit,Pre Laminated Particle Board,High Gloss:; Textured:,"23,216",http://d7gpgy8svgdhy.cloudfront.net/a9301dc/9461a1863ae56b5dcea02635e346eafa.jpg,,
,Comfort,true,"We've blended open and closed units for this entertainment unit. Show off your craftwork in the open units and hide those remotes, extra batteries and more in the closed units. It's compact, easy to dust and wipe-clean. It fits the wall quite snugly without cluttering up the room. What a great space to relax with the family and watch a movie!","10'1"" x 15'5""",Crockery Unit,Pre Laminated Particle Board,Suede,"16,028",http://d7gpgy8svgdhy.cloudfront.net/a9301dc/108ff70ecbb4559feb0216f8f088a2e9.jpg,,
,Luxury,true,"Take one look at this crockery unit and tell us you don't want to throw a party just to show this off! It's compact and elegant - quite a rare combination. There's ample room to show off the wine glasses and crockery, and to store cutlery and napkins. This blend of open and closed spaces works, don't you think?","10'1"" x 15'5""",Crockery Unit,Pre Laminated Particle Board,High Gloss,"21,885",http://d7gpgy8svgdhy.cloudfront.net/a9301dc/5dfbcb8613895e7ec02804eec9305d25.jpg,,
,Comfort,true,"This is what we call a smart kitchen. It's stylish in design and keeps the space light and airy. The laminates don't stain easily and can be wiped clean after your culinary experiments. We've waterproofed the sink unit with boiling waterproof ply. There's ample space for all your appliances, utensils, jars of condiments and more! Just add the right internal accessories and you're good to go!","11'9"" x 8'4""",Kitchen Base / Wall Units,Pre Laminated Particle Board,Suede,"1,32,398",http://d7gpgy8svgdhy.cloudfront.net/a9301dc/37e7bbfd96a3d3fdbe1fd0162024e93b.jpg,,
,Luxury,true,"This kitchen is modern and trend-setting. It comes equipped with ample space for all your cookware, condiments and culinary contraptions! These laminates don't stain easily, in case you're wondering. Pick the soft close for your drawers and flap-ups and add some really cool accessories for the cabinets to make organising the kitchen a breeze!","11'9"" x 8'4""",Kitchen Base / Wall Units,Pre Laminated Particle Board,Suede:; High Gloss:,"1,42,229",http://d7gpgy8svgdhy.cloudfront.net/a9301dc/b8d5f8e0a538dc3dbf39480ae1cdef10.jpg,,
Foyer,Comfort,true,"We've designed a simple shoe rack for your foyer. It can hold 10-15 pairs of footwear and when topped off with a cushion, can turn into a seater. Take this design home for the warm welcome your guests deserve.","6'6"" x 4'6""",Foyer Unit,Pre Laminated Particle Board,Suede:; High Gloss:,"7,654",http://d7gpgy8svgdhy.cloudfront.net/a9301dc/fd2979e3d72b0efbe3a4a931f52dae75.jpg,Juniper,blitz-brigade
Living,Luxury,true,"This cosy-looking foyer unit stows away your footwear and lets you sit on it while you do so. You should definitely accessorise the foyer, just as we have, with paintings or wall art to make the space more welcoming.","'"" x '""",Foyer Unit,Pre Laminated Particle Board,Suede:; High Gloss:,"7,654",http://d7gpgy8svgdhy.cloudfront.net/a9301dc/ca1f7e938477fca5c6e1d3072b28d395.jpg,,
Kitchen,Comfort,true,"The living room is adorned with an entertainment unit that fits in effortlessly and serves so many purposes! Mount your TV on the wall, stow away manuals, remotes and batteries and place your coveted pieces of art on display! The shelf also provides room for your favourite paperback. Get this entertainment unit, sit back and enjoy news hour with the family!","22'6"" x 11'1""",Entertainment Unit,Pre Laminated Particle Board,Suede,"24,404",http://d7gpgy8svgdhy.cloudfront.net/a9301dc/378324f1dbcdc191b4a84c24cb93738b.jpg,,
Master Bedroom,Luxury,true,"While trying to give you a great living room with adequate storage, our designers decided to go all minimalistic. It saves space and looks great on the eyes. So show off your child's trophy or your favourite souvenirs on the open shelves, store your DVDs in the drawers and tuck away all the unnecessary and unsightly tangle of wires.","1'22"" x 6'11""",Entertainment Cum Crockery Unit,Pre Laminated Particle Board,Suede,"29,536",http://d7gpgy8svgdhy.cloudfront.net/a9301dc/84e24fedac3f56d59e44bbfb5e6c9dbe.jpg,,
Kids Bedroom,Comfort,true,"This parallel kitchen with that pop of Marigold is visually light but great on storage. It’s the quintessential space to indulge your culinary experiments. The design has assigned adequate space for display, crockery and snacks.","14'1"" x 8'1""",Kitchen Base / Wall Units,Pre Laminated Particle Board,Mirror:; Laminate Hg:,"1,77,468",http://d7gpgy8svgdhy.cloudfront.net/a9301dc/7bd28409af013b14b97e4268828d8aaa.jpg,,
Guest Bedroom,Luxury,true,"Contemporary and minimalistic in style, you will find yourself immensely comfortable with this design. With several elements — few glass units, open shelves and closed ones, these cabinets are handle-less and easy-to-maintain. If you’re a couple on the move, this design is perfect for you!","11'22"" x 6'11""",Kitchen Base / Wall Units,Pre Laminated Particle Board,Suede:; High Gloss:,"2,37,259",http://d7gpgy8svgdhy.cloudfront.net/a9301dc/40c46904286d5231dddb0d0ca4133259.jpg,,
,Comfort,true,The hinged wardrobe in the master bedroom is spacious with lofts and makes maximum use of the space available. It has external drawers for all your good footwear too!,"11'"" x 11'"" + 5'0"" x 5'7""",Hinged Wardrobe With Dresser,Pre Laminated Particle Board,Suede:; High Gloss:,"67,321",http://d7gpgy8svgdhy.cloudfront.net/a9301dc/934e78951dc0877ff6204ba81b7acbb4.jpg,,
,Luxury,true,Your kids deserve the best! So we went ahead and designed a beautiful Armadio with tonnes of space to store their clothes and toys. It is space-effective and minimal in design. Let your kids spend some of their best years in this fun space!,"'"" x '""",2 Door Armadio Wardrobe,,,"1,02,903",http://d7gpgy8svgdhy.cloudfront.net/a9301dc/90548878c725a742f30a2a12fd3915ca.jpg,,
,Comfort,true,"This kids room would suit those teens who have a bright, kitschy and bold personality. We’ve used bright colours like Marigold against the backdrop of subtle shades like White. For inspiration, we’ve added prints and popular art to the room. With a three-door hinged wardrobe, a study nook replete with a cosy seating and table and open shelves, this is space will bring out the creativity in your kids. The suede finish also makes it easy to maintain.","'"" x '""",Hinged Wardrobe With Dresser,,,"69,822",http://d7gpgy8svgdhy.cloudfront.net/a9301dc/3ab43d03d676a35644f4c36e34b4e9b8.jpg,,
,Luxury,true,"We've equipped the kids room with a 4-door wardrobe and loft for all their clothes, accessories, tennis racquets and more! The wardrobe is also attached to a small but sufficient dresser. With these tones, you will find it easy to accessorise the room.","'"" x '""",Hinged Wardrobe,,,"78,667",http://d7gpgy8svgdhy.cloudfront.net/a9301dc/15846ae5241546e3264154da56012343.jpg,,
,Comfort,true,"We've used a simple colour scheme while designing the guest room for you. The wardrobe is perfect for your guests with ample storage and easy maintenance features. You can also store extra bed linen, towels and toiletries. We hope it's all you wanted in a guest bedroom!","'"" x '""",Hinged Wardrobe,,,"64,281",http://d7gpgy8svgdhy.cloudfront.net/a9301dc/54f67677a9b6486e3201e09b8af14752.jpg,,
,Luxury,true,"Guest bedrooms require something basic, but beautiful. That's why we've designed this 4-door wardrobe in Champagne and Walnut shades. It is elegant to look at and high in storage capacity. This one's all set to put your guests at ease and make them feel welcome!","'"" x '""",Hinged Wardrobe,,,"65,841",http://d7gpgy8svgdhy.cloudfront.net/a9301dc/d219d045b9d54a18cb556fec383d26b3.jpg,,
Living,Comfort,true,This smart combination of entertainment and crockery unit makes effective use of the space available in this apartment layout. The wall panelling hides the hideous tangle of wires while the combination of open units and drawers balance storage and display space. You can show off souvenirs from your trips and hide all the remote controls and manuals. The sleek look in Irish Walnut and Slate shades are designed to suit any room and personality. The suede finish ensures your furniture doesn't get stained and is easy to clean and maintain.,"11'4"" x 16'3""",Entertainment Cum Crockery Unit,Pre Laminated Particle Board,Suede,"52,409",http://d7gpgy8svgdhy.cloudfront.net/a9301dc/837ad85e5af1ecf904ca2d88235b31e0.jpg,Mountain View,blitz-brigade
Kids Bedroom,Luxury,true,"This entertainment-cum-crockery unit takes care of all your needs in one go. The wood panelling tucks away the tangled mess of wires behind the TV. The combination of open and closed shelves can be use for display and storage. To save space, the glass shutter crockery unit has been attached. So go ahead and show off your best China and pottery.","11'4"" x 16'3""",Entertainment Cum Crockery Unit,Pre Laminated Particle Board,High Gloss:; Textured:,"50,155",http://d7gpgy8svgdhy.cloudfront.net/a9301dc/bb7d123ed8d15209f4aa4ef325551c49.jpg,,
Master Bedroom,Comfort,true,"Check out the spacious and smartly designed wardrobe for the kids! Ample room for uniforms, occasion-wear and more! Ensure you add a fun wallpaper and accessories to spruce up the room.","10'6"" x 14'3""",Hinged Wardrobe,Pre Laminated Particle Board,High Gloss,"72,855",http://d7gpgy8svgdhy.cloudfront.net/a9301dc/b17de459f9d611a91dae0f520601662f.jpg,,
Kitchen,Luxury,true,"Your kids can use this 4-door wardrobe and the lofts above to store their clothes, shoes and more! The subtle shades would suit any personality and keep the room looking airy and light. Speak to our designers for colour variants.","10'6"" x 14'3""",Hinged Wardrobe,Particle Board,High Gloss:; Textured:,"86,155",http://d7gpgy8svgdhy.cloudfront.net/a9301dc/eaa7611ebaedf735443ba6b844809d81.jpg,,
Foyer,Comfort,true,This 4-door hinged wardrobe takes care of all your storage needs in the master bedroom. We've equipped it with plenty of space for his-and-her clothes and accessories. It's subtle shades lend a relaxing mood to the room.,"11'6"" x 14'3""",Hinged Wardrobe,Pre Laminated Particle Board,Suede,"78,649",http://d7gpgy8svgdhy.cloudfront.net/a9301dc/bbc0452cc912dc275dc475dff1863052.jpg,,
,Luxury,true,Feast your eyes on this 2-door Armadio! Classy and convenient all at once. It combines loft and wardrobe space for a more linear look. Ensure you add great organisational accessories internally to keep it neat.,"11'6"" x 14'3""",2 Door Armadio Wardrobe,Pre Laminated Particle Board,Lacquered Glass:; Laminate Textured:,"1,53,136",http://d7gpgy8svgdhy.cloudfront.net/a9301dc/390ea7efaded71345307fb5328d81e82.jpg,,
,Comfort,true,"Cool and refreshing, this HomeLane kitchen is functional while being aesthetically pleasing. With plenty of counter space and separate space for your microwave, cooking in this space will be a joy. The blend of open and closed units are great for things you want to show off, like your good China, and things you don't want to show off like your condiments. The white laminates are very easy to maintain since they don't stain easily and are easy to clean. There's plenty of light in this kitchen, so you can add some succulents to the window ledge too!","13'6"" x 8'10""",Kitchen Base / Wall Tall ,Pre Laminated Particle Board,Suede,"1,45,557",http://d7gpgy8svgdhy.cloudfront.net/a9301dc/a30fc3b1bb49d6321a9adcbb562fabac.jpg,,
,Luxury,true,"We love designing bright and airy kitchens with a pop of colour. It's in vogue and also visually appealing. There's plenty of storage space and a good number of open units to display crockery. Easy to wipe clean and maintain, this kitchen is a hot item in our catalogue.","13'6"" x 8'10""",Kitchen Base / Wall Units,Pre Laminated Particle Board,Suede:; High Gloss:,"1,61,098",http://d7gpgy8svgdhy.cloudfront.net/a9301dc/89cd1a0846061bb0673c47643425d69e.jpg,,
,Comfort,true,This design with a shoe rack offers seating as you wear your favourite pair of heels to head out and the ledge above can hold some antiques you picked up from Thailand or Tanjavur. Now your guests also don’t have to wear their footwear into your beautiful home.,"5'9"" x 4'1""",Foyer Unit,Pre Laminated Particle Board,Suede,"7,300",http://d7gpgy8svgdhy.cloudfront.net/a9301dc/01598e808c4efd6eb4c88de4300ead04.jpg,,
,Luxury,true,"The foyer unit is the warm welcome you need after a long day at work. Store up to 15 pairs of footwear and when topped off with a cushion, can be used as a seater. This beautiful shoe rack can be yours if you choose HomeLane as your interior partner.","5'9"" x 4'1""",Foyer Unit,Pre Laminated Particle Board,Suede,"7,300",http://d7gpgy8svgdhy.cloudfront.net/a9301dc/01598e808c4efd6eb4c88de4300ead04.jpg,,