allrooms.roomtype,allrooms.priceversions.priceversion,allrooms.priceversions.available,allrooms.priceversions.description,allrooms.priceversions.dimension,allrooms.priceversions.productlist,allrooms.priceversions.corematerial,allrooms.priceversions.finish,allrooms.priceversions.price,allrooms.priceversions.image,apartment,blitzproject
Kitchen,Essential,false,"We continue the pop theme in the L-shaped kitchen too, but in muted shades of Savannah Cherry and Dark Citrus. Look at those clean lines courtesy the handle-less cabinets! It'll make opening and closing the cabinets simple. We've accommodated a lot of storage space since this is not a very big kitchen. So you can put away all your appliances and keep your counter free of clutter. We bet you'll make some interesting meals and memories in this kitchen!","9'10"" X 11'0""",Kitchen Cabinet & Accessories,Boiling Water Ply + Boiling Water Ply,"Suede Finish: Savannah Cherry, Dark Citrus","1,75,694",http://d7gpgy8svgdhy.cloudfront.net/562321b/5ebae326f2babebedbce7ffb73e92e17.jpg,1609,blitz-durgapetals
Master Bedroom,Comfort,true,"This handle-less kitchen's not just good looking, it is also highly functional. It comes with a combination of open and closed units for storage and display. The semi-tall unit comes with the option of using internal accessories or just shelves. Your microwave can go over this unit. With a soft close on the drawers and shutters, it's noiseless and easy to maintain. A must have for your Durga Petals home!","8'2"" X 10'6""","Base Units, Wall Units and Open Units",Pre-laminated Particle Board (PLPB) + Particle Board,Suede Finish: Midnight Grey; High Gloss: Nogal Walnut,"2,70,531",http://d7gpgy8svgdhy.cloudfront.net/562321b/5ebae326f2babebedbce7ffb73e92e17.jpg,,
Kids Bedroom,Luxury,false,"The master bedroom is designed with the Zen theme in mind. The Asian influence can be seen in the use of contrasting wood grains, colours and patterns. We've put in a beautiful 2-door Armadio with internal drawers and shelves. The sliding doors will keep your room looking spacious. It has been designed to ensure your private space is also the retreat you need at the end of the day. The space is designed to create tranquility and relaxation.","12'0"" X 14’4""",2-Door Armadio Wardrobe,Pre-laminated Particle Board (PLPB) + MDF for Armadio,Suede Finish: Pure Oak; High Gloss Finish: Mediterranean Oak,"1,65,830",http://d7gpgy8svgdhy.cloudfront.net/562321b/4bcf2e7618eb87555e8d082edf458955.jpg,,
Living Room,Essential,false,"The master bedroom is designed with the Zen theme in mind. The Asian influence can be seen in the use of contrasting wood grains, colours and patterns. We've put in a beautiful 2-door Armadio with internal drawers and shelves. The sliding doors will keep your room looking spacious. It has been designed to ensure your private space is also the retreat you need at the end of the day. The space is designed to create tranquility and relaxation.","12'0"" X 14’4""",Sliding Wardrobe,Pre-laminated Particle Board (PLPB) + MDF for Armadio,Suede Finish: Pure Oak; High Gloss Finish: Mediterranean Oak,"1,65,830",http://d7gpgy8svgdhy.cloudfront.net/562321b/4bcf2e7618eb87555e8d082edf458955.jpg,,
Foyer,Comfort,true,"The textured finish in this sliding wardobe is currently in vogue and fast-moving! Combined with lacquered glass or solid colours, it is set to make your master bedroom a personal sanctuary. The loft above gives you ample storage for boxes, suitcases, and more!","11'8"" X 13'7""",Sliding Wardrobe,Pre-laminated Particle Board (PLPB) + Particle Board,Suede Finish: Midnight Grey; Texture Finish: Pristine Wood,"1,48,076",http://d7gpgy8svgdhy.cloudfront.net/562321b/4bcf2e7618eb87555e8d082edf458955.jpg,,
Dining Room,Luxury,false,"The master bedroom is designed with the Zen theme in mind. The Asian influence can be seen in the use of contrasting wood grains, colours and patterns. We've put in a beautiful 2-door Armadio with internal drawers and shelves. The sliding doors will keep your room looking spacious. It has been designed to ensure your private space is also the retreat you need at the end of the day. The space is designed to create tranquility and relaxation.","12'0"" X 14’4""",2-Door Armadio Wardrobe,Pre-laminated Particle Board (PLPB) + MDF for Armadio,Suede Finish: Pure Oak; High Gloss Finish: Mediterranean Oak,"1,65,830",http://d7gpgy8svgdhy.cloudfront.net/562321b/4bcf2e7618eb87555e8d082edf458955.jpg,,
Master Bedroom Dresser,Essential,false,"We have the perfect solution for your kids' room — wardrobe and attached study. It's compact and fun to look at, and not to mention in gender neutral colours! There's plenty of space for clothes, books, stationery, shoes and all those little knick-knacks your kids will have.","13'1"" X 11'1""",Hinged Wardrobe with Study,Pre-laminated Particle Board (PLPB) + Particle Board,Suede Finish: Moldau Acacia Cream and Moldau Acacia Light; High Gloss: Pervinca,"1,01,727",http://d7gpgy8svgdhy.cloudfront.net/562321b/ca95ae440bff31050077934fa810e9bd.jpg,,
Study Room,Comfort,true,"Contemporary in design with a pop of colour, this wardrobe will suit your child's bright and bubbly personality. The attached study unit gives them enough space for books and a desktop. Why shop for individual units for your child's room when we have great solutions like this that fits in your budget?","11'2"" X 13'1""",Hinged Wardrobe with Study,Pre-laminated Particle Board (PLPB) + Particle Board,"High Gloss: Marigold, Frosty White","83,889",http://d7gpgy8svgdhy.cloudfront.net/562321b/ca95ae440bff31050077934fa810e9bd.jpg,,
Master Bedroom Vanity,Luxury,false,"The master bedroom is designed with the Zen theme in mind. The Asian influence can be seen in the use of contrasting wood grains, colours and patterns. We've put in a beautiful 2-door Armadio with internal drawers and shelves. The sliding doors will keep your room looking spacious. It has been designed to ensure your private space is also the retreat you need at the end of the day. The space is designed to create tranquility and relaxation.","12'0"" X 14’4""",2-Door Armadio Wardrobe,Pre-laminated Particle Board (PLPB) + MDF for Armadio,Suede Finish: Pure Oak; High Gloss Finish: Mediterranean Oak,"1,65,830",http://d7gpgy8svgdhy.cloudfront.net/562321b/4bcf2e7618eb87555e8d082edf458955.jpg,,
Prayer Unit,Essential,false,"We've blended open and closed units for this entertainment unit. This too, comes in the same pop theme as the foyer. So show off your craftwork in the open units and hide those remotes, extra batteries and more in the closed units. It's compact, easy to dust and wipe-clean. The wood panelling also takes care of hiding the ugly tangle of wires we usually have behind TVs. What a great space to relax with the family and watch a movie!","13'0"" X 16'0""","TV Unit with Base Drawers, Open Base and Shutter Unit, Shelves and Wall Panelling",Commercial Ply + Commercial Ply,"Suede Finish: Irish Walnut, Berry Bunch","55,400 (with crockery unit)",http://d7gpgy8svgdhy.cloudfront.net/562321b/0e263fca6e35c5e38f5889b852dab7cc.jpg,,
,Comfort,true,"This chic entertainment unit just made movie nights more exciting. The panelling provided hides the unsightly tangle of wires we usually have behind the TV. You can stow away your DVDs, remotes and other accessories in the drawers in the base unit, which are handle-less. You can also display your favourite books or memorablia on the open shelves.","9'1"" X 10'6""",Base-mounted TV unit and Open Units,Pre-laminated Particle Board (PLPB) + Particle Board,Suede Finish: Moldau Acacia Brown; High Gloss: Champagne,"47,196",http://d7gpgy8svgdhy.cloudfront.net/562321b/0e263fca6e35c5e38f5889b852dab7cc.jpg,,
,Luxury,false,"The master bedroom is designed with the Zen theme in mind. The Asian influence can be seen in the use of contrasting wood grains, colours and patterns. We've put in a beautiful 2-door Armadio with internal drawers and shelves. The sliding doors will keep your room looking spacious. It has been designed to ensure your private space is also the retreat you need at the end of the day. The space is designed to create tranquility and relaxation.","12'0"" X 14’4""",2-Door Armadio Wardrobe,Pre-laminated Particle Board (PLPB) + MDF for Armadio,Suede Finish: Pure Oak; High Gloss Finish: Mediterranean Oak,"1,65,830",http://d7gpgy8svgdhy.cloudfront.net/562321b/4bcf2e7618eb87555e8d082edf458955.jpg,,
,Essential,false,"Hello, good looking! This stylishly understated foyer unit can hold over 5 pairs of footwear and comes with a seating space. The membrane has been moulded to the shutter without edge banding, making it more visually appealing. You'll find it easy to clean and maintain too.","8'7"" X 5'8""",Base-mounted Foyer Shutter Unit,Pre-laminated Particle Board (PLPB) + Membrane,"Suede Finish: Stone Grey Suedette, Moldau Acacia Cream","22,000",http://d7gpgy8svgdhy.cloudfront.net/562321b/cbced961e40dc032e3985c98b1dfbfe8.jpg,,
,Comfort,true,Now this is what we call a warm welcome! The shoe rack can hold over 5 pairs of shoes. You can turn this into a seater by topping it off with a cushion.,"4'7"" X 5'11""",Base-mounted Foyer Shutter Unit,Pre-laminated Particle Board (PLPB) + Particle Board,Suede Finish: Moldau Acacia Brown; High Gloss: Champagne,"11,158",http://d7gpgy8svgdhy.cloudfront.net/562321b/cbced961e40dc032e3985c98b1dfbfe8.jpg,,
,Luxury,false,"The master bedroom is designed with the Zen theme in mind. The Asian influence can be seen in the use of contrasting wood grains, colours and patterns. We've put in a beautiful 2-door Armadio with internal drawers and shelves. The sliding doors will keep your room looking spacious. It has been designed to ensure your private space is also the retreat you need at the end of the day. The space is designed to create tranquility and relaxation.","12'0"" X 14’4""",2-Door Armadio Wardrobe,Pre-laminated Particle Board (PLPB) + MDF for Armadio,Suede Finish: Pure Oak; High Gloss Finish: Mediterranean Oak,"1,65,830",http://d7gpgy8svgdhy.cloudfront.net/562321b/4bcf2e7618eb87555e8d082edf458955.jpg,,
,Essential,false,"The crockery unit is attached to the entertainment unit here. The tall unit is closed, keeping out the dust and stores all your good China and wine glasses. Go on, show it off all the glassware you've collected.","13'0"" X 16'0""",Tall Glass Shutter Unit,Commercial Ply + Commercial Ply,"Suede Finish: Irish Walnut, Berry Bunch","55,400 (with entertainment unit)",http://d7gpgy8svgdhy.cloudfront.net/562321b/a0f31458b018428e173b598e28b5f363.jpg,,
,Comfort,true,"You don't have to worry about dust getting trapped below the crockery shelf anymore. The crockery comes with suspended drawers that are sleek and highly functional. It has Aluminium flap-up units that are easy to use. Display your crockery, wine glasses and coffee mugs while you stow away the napkins and cutlery.","11'8"" X 18'0""",Wall-mounted Crockery Unit with Suspended Drawers and a Combination of Open and Closed Units,Pre-laminated Particle Board (PLPB) + Particle Board,Suede Finish: Moldau Acacia Brown; High Gloss: Champagne,"25,075",http://d7gpgy8svgdhy.cloudfront.net/562321b/a0f31458b018428e173b598e28b5f363.jpg,,
,Luxury,false,"The master bedroom is designed with the Zen theme in mind. The Asian influence can be seen in the use of contrasting wood grains, colours and patterns. We've put in a beautiful 2-door Armadio with internal drawers and shelves. The sliding doors will keep your room looking spacious. It has been designed to ensure your private space is also the retreat you need at the end of the day. The space is designed to create tranquility and relaxation.","12'0"" X 14’4""",2-Door Armadio Wardrobe,Pre-laminated Particle Board (PLPB) + MDF for Armadio,Suede Finish: Pure Oak; High Gloss Finish: Mediterranean Oak,"1,65,830",http://d7gpgy8svgdhy.cloudfront.net/562321b/4bcf2e7618eb87555e8d082edf458955.jpg,,
,Essential,false,We've provided a simple and compact wardrobe with dresser to the master bedroom. It's got a loft above to hold all those extra boxes and suitcases. Use light solid colours like champagne and tan in the room with your bedcovers and curtains for great aesthetic effect. Go bold with the corner window seating pillows!,"14'5"" X 12'5""",Hinged Wardrobe with Dressert,Pre-laminated Particle Board (PLPB) + Particle Board,"Suede Finish: Ebony Aspen, White","1,15,967",http://d7gpgy8svgdhy.cloudfront.net/562321b/114c13a7d06eb7e2a9023834b32052f9.jpg,,
,Comfort,true,"The perfect addition to the master bedroom, the colours of this dresser unit complement the wardrobe. Now you have space for your daily essentials, makeup and jewellery.","11'8"" X 13'7""",Dresser Unit with Mirror,Pre-laminated Particle Board (PLPB) + Particle Board,Suede Finish: Midnight Grey; Texture Finish: Pristine Wood,"19,358",http://d7gpgy8svgdhy.cloudfront.net/562321b/114c13a7d06eb7e2a9023834b32052f9.jpg,,
,Luxury,false,"The master bedroom is designed with the Zen theme in mind. The Asian influence can be seen in the use of contrasting wood grains, colours and patterns. We've put in a beautiful 2-door Armadio with internal drawers and shelves. The sliding doors will keep your room looking spacious. It has been designed to ensure your private space is also the retreat you need at the end of the day. The space is designed to create tranquility and relaxation.","12'0"" X 14’4""",2-Door Armadio Wardrobe,Pre-laminated Particle Board (PLPB) + MDF for Armadio,Suede Finish: Pure Oak; High Gloss Finish: Mediterranean Oak,"1,65,830",http://d7gpgy8svgdhy.cloudfront.net/562321b/114c13a7d06eb7e2a9023834b32052f9.jpg,,
,Essential,false,"Adopting a Scandinavian design, we've used Irish Walnut and Champagne in the guest room to create a tranquil space for your guests. There's plenty of storage too, in case you to put in bed linen, towels and more. Compact and simple, we hope your guests enjoy the room!","11’0"" X 13’0""","4-Door Hinged Wardrobe with Dresser, Drawer, Mirror and Loft",Commercial Ply + Block Board,"Suede Finish: Walnut, Champagne","1,15,967",http://d7gpgy8svgdhy.cloudfront.net/562321b/5617b457b9da8cdb9089d73d004d9dd8.jpg,,
,Comfort,true,"This study room can be used as a home office/library/guest room. It's something for the whole family to use. Add a sofa-cum-bed and use it when guests come to stay over. The wardrobe gives you ample space for your extra linen and towels. It's a perfect setup for those who work from home. With ample sunlight flooding in, the design ushers in great energy as you work.","10'1"" X 8'10""",Hinged Wardrobe with Study,Pre-laminated Particle Board (PLPB) + Particle Board,Suede Finish: Moldau Acacia Cream; High Gloss: Dark Citrus,"91,232",http://d7gpgy8svgdhy.cloudfront.net/562321b/5617b457b9da8cdb9089d73d004d9dd8.jpg,,
,Luxury,false,"The master bedroom is designed with the Zen theme in mind. The Asian influence can be seen in the use of contrasting wood grains, colours and patterns. We've put in a beautiful 2-door Armadio with internal drawers and shelves. The sliding doors will keep your room looking spacious. It has been designed to ensure your private space is also the retreat you need at the end of the day. The space is designed to create tranquility and relaxation.","12'0"" X 14’4""",2-Door Armadio Wardrobe,Pre-laminated Particle Board (PLPB) + MDF for Armadio,Suede Finish: Pure Oak; High Gloss Finish: Mediterranean Oak,"1,65,830",http://d7gpgy8svgdhy.cloudfront.net/562321b/5617b457b9da8cdb9089d73d004d9dd8.jpg,,
,Essential,false,"Adopting a Scandinavian design, we've used Irish Walnut and Champagne in the guest room to create a tranquil space for your guests. There's plenty of storage too, in case you to put in bed linen, towels and more. Compact and simple, we hope your guests enjoy the room!","11’0"" X 13’0""","4-Door Hinged Wardrobe with Dresser, Drawer, Mirror and Loft",Commercial Ply + Block Board,"Suede Finish: Walnut, Champagne","1,15,967",http://d7gpgy8svgdhy.cloudfront.net/562321b/089f65894088565d0805272329dc9f9b.jpg,,
,Comfort,true,"Fully waterproof, this vanity unit comes with the mirror. The cabinet can hold your toiletries and cleaning agents. The finish is easy to cleanm keeping off mold.","10'1"" X 8'10""",Base Unit and Mirror,Boiling Waterproof Ply,Suede Finish: Brazilian Walnut,"17,534",http://d7gpgy8svgdhy.cloudfront.net/562321b/089f65894088565d0805272329dc9f9b.jpg,,
,Luxury,false,"The master bedroom is designed with the Zen theme in mind. The Asian influence can be seen in the use of contrasting wood grains, colours and patterns. We've put in a beautiful 2-door Armadio with internal drawers and shelves. The sliding doors will keep your room looking spacious. It has been designed to ensure your private space is also the retreat you need at the end of the day. The space is designed to create tranquility and relaxation.","12'0"" X 14’4""",2-Door Armadio Wardrobe,Pre-laminated Particle Board (PLPB) + MDF for Armadio,Suede Finish: Pure Oak; High Gloss Finish: Mediterranean Oak,"1,65,830",http://d7gpgy8svgdhy.cloudfront.net/562321b/089f65894088565d0805272329dc9f9b.jpg,,
,Essential,false,"Adopting a Scandinavian design, we've used Irish Walnut and Champagne in the guest room to create a tranquil space for your guests. There's plenty of storage too, in case you to put in bed linen, towels and more. Compact and simple, we hope your guests enjoy the room!","11’0"" X 13’0""","4-Door Hinged Wardrobe with Dresser, Drawer, Mirror and Loft",Commercial Ply + Block Board,"Suede Finish: Walnut, Champagne","1,15,967",http://d7gpgy8svgdhy.cloudfront.net/562321b/d31a661e8347a2c912ef539d42c275ab.jpg,,
,Comfort,true,"This versatile unit is a perfect addition to your Durga Petals home, fitting snugly into the corner. Use it as a Pooja Unit or to display pictures and souvenirs you've collected from around the world. The colours fit in with the living and dining room design too!","10'1"" X 8'10""",Wall-mounted Prayer Unit,Pre-laminated Particle Board (PLPB) + Particle Board,Suede Finish: Moldau Acacia Brown; High Gloss: Champagne,"8,793",http://d7gpgy8svgdhy.cloudfront.net/562321b/d31a661e8347a2c912ef539d42c275ab.jpg,,
,Luxury,false,"The master bedroom is designed with the Zen theme in mind. The Asian influence can be seen in the use of contrasting wood grains, colours and patterns. We've put in a beautiful 2-door Armadio with internal drawers and shelves. The sliding doors will keep your room looking spacious. It has been designed to ensure your private space is also the retreat you need at the end of the day. The space is designed to create tranquility and relaxation.","12'0"" X 14’4""",2-Door Armadio Wardrobe,Pre-laminated Particle Board (PLPB) + MDF for Armadio,Suede Finish: Pure Oak; High Gloss Finish: Mediterranean Oak,"1,65,830",http://d7gpgy8svgdhy.cloudfront.net/562321b/d31a661e8347a2c912ef539d42c275ab.jpg,,
Kitchen,Essential,true,"This is what we call a smart kitchen. It's stylish in design and the white overhead cabinets make the kitchen look more expansive. The laminates don't stain easily and can be wiped clean after your culinary experiments. We've waterproofed the sink unit with boiling waterproof ply. There's ample space for all your appliances, utensils, jars of condiments and more! Just add the right internal accessories and you're good to go!","10'4"" X 8'1""","Base Units, Wall Units and Open Units",Pre-laminated Particle Board (PLPB) + Pre-laminated Particle Board (PLPB),"Suede Finish: Moldau Acacia Brown, Frosty White","2,09,012",http://d7gpgy8svgdhy.cloudfront.net/562321b/f540d0614edbe49e8a4131c75e5f6394.jpg,1671,blitz-durgapetals
Master Bedroom,Comfort,false,"This kitchen's not just good looking, it comes with ample storage space. The design comes with a combination of open and closed units for storage and display. The semi-tall unit comes with the option of using internal accessories or just shelves. Your microwave can go over this unit. This handle-less kitchen comes in the season's trendy colours. With a soft close touch on the drawers and shutters, it's easy to use, noiseless and easy to maintain. A must have for your Durga home!","8'2"" X 10'6""","Base Units, Wall Units and Open Units",Pre-laminated Particle Board (PLPB) + Particle Board,Suede Finish: Midnight Grey; High Gloss: Nogal Walnut,"2,52,832",http://d7gpgy8svgdhy.cloudfront.net/562321b/f540d0614edbe49e8a4131c75e5f6394.jpg,,
Kids Bedroom,Luxury,false,"The master bedroom is designed with the Zen theme in mind. The Asian influence can be seen in the use of contrasting wood grains, colours and patterns. We've put in a beautiful 2-door Armadio with internal drawers and shelves. The sliding doors will keep your room looking spacious. It has been designed to ensure your private space is also the retreat you need at the end of the day. The space is designed to create tranquility and relaxation.","12'0"" X 14’4""",2-Door Armadio Wardrobe,Pre-laminated Particle Board (PLPB) + MDF for Armadio,Suede Finish: Pure Oak; High Gloss Finish: Mediterranean Oak,"1,65,830",http://d7gpgy8svgdhy.cloudfront.net/562321b/bb6a46391c29906374dbdf2ee632993c.jpg,,
Living Room,Essential,true,We've provided a simple and compact wardrobe with dresser to the master bedroom. It's got a loft above to hold all those extra boxes and suitcases. Use light solid colours like champagne and tan in the room with your bedcovers and curtains for great aesthetic effect. Go bold with the corner window seating pillows!,"14'5"" X 12'5""",Hinged Wardrobe with Dresser,Pre-laminated Particle Board (PLPB) + Particle Board,"Suede Finish: Ebony Aspen, White","97,783",http://d7gpgy8svgdhy.cloudfront.net/562321b/bb6a46391c29906374dbdf2ee632993c.jpg,,
Foyer,Comfort,false,"The textured finish in this sliding wardobe is currently in vogue and fast-moving! Combined with lacquered glass or solid colours, it is set to make your master bedroom a personal sanctuary. The loft above gives you ample storage for boxes, suitcases, and more!","11'8"" X 13'7""",Sliding Wardrobe,Pre-laminated Particle Board (PLPB) + Particle Board,Suede Finish: Midnight Grey; Texture Finish: Pristine Wood,"1,69,915",http://d7gpgy8svgdhy.cloudfront.net/562321b/bb6a46391c29906374dbdf2ee632993c.jpg,,
Dining Room,Luxury,false,"The master bedroom is designed with the Zen theme in mind. The Asian influence can be seen in the use of contrasting wood grains, colours and patterns. We've put in a beautiful 2-door Armadio with internal drawers and shelves. The sliding doors will keep your room looking spacious. It has been designed to ensure your private space is also the retreat you need at the end of the day. The space is designed to create tranquility and relaxation.","12'0"" X 14’4""",2-Door Armadio Wardrobe,Pre-laminated Particle Board (PLPB) + MDF for Armadio,Suede Finish: Pure Oak; High Gloss Finish: Mediterranean Oak,"1,65,830",http://d7gpgy8svgdhy.cloudfront.net/562321b/bb6a46391c29906374dbdf2ee632993c.jpg,,
Guest Bedroom,Essential,true,"We have the perfect solution for your kids' room — wardrobe and attached study. It's compact and fun to look at, and not to mention in gender neutral colours! There's plenty of space for clothes, books, stationery, shoes and all those little knick-knacks your kids will have.","13'1"" X 11'1""",Hinged Wardrobe with Study,Pre-laminated Particle Board (PLPB) + Particle Board,Suede Finish: Moldau Acacia Cream and Moldau Acacia Light; High Gloss: Pervinca,"99,525",http://d7gpgy8svgdhy.cloudfront.net/562321b/addb3125b11bd074057c34a1c69655f0.jpg,,
,Comfort,false,"Contemporary in design with a pop of colour, this wardrobe will suit your child's bright and bubbly personality. The attached study unit gives them enough space for books and a desktop. Why shop for individual units for your child's room when we have great solutions like this that fits in your budget?","11'2"" X 13'1""",Hinged Wardrobe with Study,Pre-laminated Particle Board (PLPB) + Particle Board,"High Gloss: Marigold, Frosty White","97,133",http://d7gpgy8svgdhy.cloudfront.net/562321b/addb3125b11bd074057c34a1c69655f0.jpg,,
,Luxury,false,"The master bedroom is designed with the Zen theme in mind. The Asian influence can be seen in the use of contrasting wood grains, colours and patterns. We've put in a beautiful 2-door Armadio with internal drawers and shelves. The sliding doors will keep your room looking spacious. It has been designed to ensure your private space is also the retreat you need at the end of the day. The space is designed to create tranquility and relaxation.","12'0"" X 14’4""",2-Door Armadio Wardrobe,Pre-laminated Particle Board (PLPB) + MDF for Armadio,Suede Finish: Pure Oak; High Gloss Finish: Mediterranean Oak,"1,65,830",http://d7gpgy8svgdhy.cloudfront.net/562321b/bb6a46391c29906374dbdf2ee632993c.jpg,,
,Essential,true,"This well lit living room deserves a classy entertainment unit, courtesy HomeLane. Check out the suspended drawers that make it easy for you to store things and clean beneath. The combination of open and closed shelves give you plenty of room for your favourite paperbacks, trophies and knick-knacks. Set up your television and speakers for good viewing with the family!","11'6"" X 27'6""","Wall-mounted Shelves, Open Units and Base Shutter Unit",Pre-laminated Particle Board (PLPB) + Membrane,"Suede Finish: Stone Grey Suedette, Moldau Acacia Cream","34,838",http://d7gpgy8svgdhy.cloudfront.net/562321b/7d8c3740e329be1648c7c887fb5e52db.jpg,,
,Comfort,false,"This chic entertainment unit just made movie nights more exciting. The panelling provided hides the unsightly tangle of wires we usually have behind the TV. You can stow away your DVDs, remotes and other accessories in the drawers in the base unit, which are handle-less. You can also display your favourite books or memorablia on the open shelves.","9'1"" X 10'6""",Base-mounted TV unit and Open Units,Pre-laminated Particle Board (PLPB) + Particle Board,Suede Finish: Moldau Acacia Brown; High Gloss: Champagne,"73,792",http://d7gpgy8svgdhy.cloudfront.net/562321b/7d8c3740e329be1648c7c887fb5e52db.jpg,,
,Luxury,false,"The master bedroom is designed with the Zen theme in mind. The Asian influence can be seen in the use of contrasting wood grains, colours and patterns. We've put in a beautiful 2-door Armadio with internal drawers and shelves. The sliding doors will keep your room looking spacious. It has been designed to ensure your private space is also the retreat you need at the end of the day. The space is designed to create tranquility and relaxation.","12'0"" X 14’4""",2-Door Armadio Wardrobe,Pre-laminated Particle Board (PLPB) + MDF for Armadio,Suede Finish: Pure Oak; High Gloss Finish: Mediterranean Oak,"1,65,830",http://d7gpgy8svgdhy.cloudfront.net/562321b/bb6a46391c29906374dbdf2ee632993c.jpg,,
,Essential,true,"Hello, good looking! This stylishly understated foyer unit can hold over 5 pairs of footwear and comes with a seating space. The membrane has been moulded to the shutter without edge banding, making it more visually appealing. You'll find it easy to clean and maintain too.","8'7"" X 5'8""",Base-mounted Foyer Shutter Unit,Pre-laminated Particle Board (PLPB) + Membrane,"Suede Finish: Stone Grey Suedette, Moldau Acacia Cream","13,808",http://d7gpgy8svgdhy.cloudfront.net/562321b/8ff99d8614052f543e5a00d375cf579a.jpg,,
,Comfort,false,Now this is what we call a warm welcome! The shoe rack can hold over 5 pairs of shoes. You can turn this into a seater by topping it off with a cushion.,"4'7"" X 5'11""",Base-mounted Foyer Shutter Unit,Pre-laminated Particle Board (PLPB) + Particle Board,Suede Finish: Moldau Acacia Brown; High Gloss: Champagne,"18,336",http://d7gpgy8svgdhy.cloudfront.net/562321b/8ff99d8614052f543e5a00d375cf579a.jpg,,
,Luxury,false,"The master bedroom is designed with the Zen theme in mind. The Asian influence can be seen in the use of contrasting wood grains, colours and patterns. We've put in a beautiful 2-door Armadio with internal drawers and shelves. The sliding doors will keep your room looking spacious. It has been designed to ensure your private space is also the retreat you need at the end of the day. The space is designed to create tranquility and relaxation.","12'0"" X 14’4""",2-Door Armadio Wardrobe,Pre-laminated Particle Board (PLPB) + MDF for Armadio,Suede Finish: Pure Oak; High Gloss Finish: Mediterranean Oak,"1,65,830",http://d7gpgy8svgdhy.cloudfront.net/562321b/bb6a46391c29906374dbdf2ee632993c.jpg,,
,Essential,true,"This crockery unit fits right into the floor plan and isn't imposing at all! In fact, it gives you space for your fine China and wine glasses. The drawers can hold place mats, table runners, candles, cutlery and more! This piece is bound to make your neighbours envious.","11'6"" X 21'3""",Wall-mounted Crockery Unit with Suspended Drawers and a Combination of Open and Closed Units,Pre-laminated Particle Board (PLPB) + Membrane,"Suede Finish: Stone Grey Suedette, Moldau Acacia Cream","25,241",http://d7gpgy8svgdhy.cloudfront.net/562321b/6bfc7d83d280ee69758af7254a108a57.jpg,,
,Comfort,false,"An exposed wash basin in the living room can be quite unsightly. We propose you conceal all the plumbing with our vanity unit design. Additionally, you can store hand towels, soap and cleaning agents in the cabinet below. The unit has been designed to match the rest of the interiors.","11'8"" X 18'0""",Wall-mounted Crockery Unit with Suspended Drawers and a Combination of Open and Closed Units,Pre-laminated Particle Board (PLPB) + Particle Board,Suede Finish: Moldau Acacia Brown; High Gloss: Champagne,"8,661",http://d7gpgy8svgdhy.cloudfront.net/562321b/6bfc7d83d280ee69758af7254a108a57.jpg,,
,Luxury,false,"The master bedroom is designed with the Zen theme in mind. The Asian influence can be seen in the use of contrasting wood grains, colours and patterns. We've put in a beautiful 2-door Armadio with internal drawers and shelves. The sliding doors will keep your room looking spacious. It has been designed to ensure your private space is also the retreat you need at the end of the day. The space is designed to create tranquility and relaxation.","12'0"" X 14’4""",2-Door Armadio Wardrobe,Pre-laminated Particle Board (PLPB) + MDF for Armadio,Suede Finish: Pure Oak; High Gloss Finish: Mediterranean Oak,"1,65,830",http://d7gpgy8svgdhy.cloudfront.net/562321b/bb6a46391c29906374dbdf2ee632993c.jpg,,
,Essential,true,"Your guests deserve great hospitality and a room that speaks of class. So we opted for Irish Walnut and Midnight Grey laminates. There's enough storage to fit your guests' needs and even your miscellaneous storage needs. The dresser and drawers complete this room. Once installed, all you have to do is move in! Compliment this wardrobe with light-coloured fabrics and wallpaper.","11'6"" X 13'6""",Hinged Wardrobe with Dresser,Pre-laminated Particle Board (PLPB) + Particle Board,"Suede Finish: Irish Walnut, Midnight Grey","61,324",http://d7gpgy8svgdhy.cloudfront.net/562321b/a7a4694bdfae0c07f0b3a7329e716efe.jpg,,
,Comfort,false,"Our designers like to keep it classy but modern. So they stuck to the wooden colour while designing the guest room. The huge wardrobe provides ample space for your guests staying over. You too can store your bed linen, towels and toiletries. Feel at home, this room says.","15'1"" X 11'6"" + 6'6"" X 5'9""",4-Door Hinged Wardrobe,Commercial Ply + Blockboard,Suede Finish: Brazilian Walnut,"88,301",http://d7gpgy8svgdhy.cloudfront.net/562321b/a7a4694bdfae0c07f0b3a7329e716efe.jpg,,
,Luxury,false,"The master bedroom is designed with the Zen theme in mind. The Asian influence can be seen in the use of contrasting wood grains, colours and patterns. We've put in a beautiful 2-door Armadio with internal drawers and shelves. The sliding doors will keep your room looking spacious. It has been designed to ensure your private space is also the retreat you need at the end of the day. The space is designed to create tranquility and relaxation.","12'0"" X 14’4""",2-Door Armadio Wardrobe,Pre-laminated Particle Board (PLPB) + MDF for Armadio,Suede Finish: Pure Oak; High Gloss Finish: Mediterranean Oak,"1,65,830",http://d7gpgy8svgdhy.cloudfront.net/562321b/bb6a46391c29906374dbdf2ee632993c.jpg,,
Kitchen,Essential,true,"This citrusy kitchen is modern and trend-setting. It comes equipped with ample space for all your cookware, condiments and culinary contraptions! These laminates don't stain easily, in case you're wondering about using white in the kitchen. Pick the soft close for your drawers and flap-ups and add some really cool accessories for the cabinets to make organising the kitchen a breeze!","8’2"" X 10’6""","Base Units, Wall Units and Open Units",Pre-laminated Particle Board (PLPB) + Particle Board,"Suede Finish: Dark Citrus, Royal White","1,69,333",http://d7gpgy8svgdhy.cloudfront.net/562321b/e8a2ae5993b458985de2bab6cc157abc.jpg,1598,blitz-durgapetals
Master Bedroom,Comfort,false,"This kitchen's not just good looking, it comes with ample storage space. The design comes with a combination of open and closed units for storage and display. The semi-tall unit comes with the option of using internal accessories or just shelves. Your microwave can go over this unit. This handle-less kitchen comes in the season's trendy colours. With a soft close touch on the drawers and shutters, it's easy to use, noiseless and easy to maintain. A must have for your Durga home!","8'2"" X 10'6""","Base Units, Wall Units and Open Units",Pre-laminated Particle Board (PLPB) + Particle Board,Suede Finish: Midnight Grey; High Gloss: Nogal Walnut,"2,52,832",http://d7gpgy8svgdhy.cloudfront.net/562321b/e8a2ae5993b458985de2bab6cc157abc.jpg,,
Kids Bedroom,Luxury,false,"The master bedroom is designed with the Zen theme in mind. The Asian influence can be seen in the use of contrasting wood grains, colours and patterns. We've put in a beautiful 2-door Armadio with internal drawers and shelves. The sliding doors will keep your room looking spacious. It has been designed to ensure your private space is also the retreat you need at the end of the day. The space is designed to create tranquility and relaxation.","12'0"" X 14’4""",2-Door Armadio Wardrobe,Pre-laminated Particle Board (PLPB) + MDF for Armadio,Suede Finish: Pure Oak; High Gloss Finish: Mediterranean Oak,"1,65,830",http://d7gpgy8svgdhy.cloudfront.net/562321b/651fcbd38b087679e2902751f40bc5ce.jpg,,
Living Room,Essential,true,The hinged wardrobe fits snugly into your room with the sober tones we've used. But there's no compromise on space utilisation here — the wardrobe and loft above are incredibly spacious to hold a couple's clothes and more. The mirror and dresser shelf occupy very little space but are very essential in every room. Just add a seater and you're good to go!,"11’6"" X 13’7""",4-Door Hinged Wardrobe with Loft and Dresser Shelf with Mirror,Pre-laminated Particle Board (PLPB) + Particle Board,"Suede Finish: Brazilian Walnut, Champagne","84,160",http://d7gpgy8svgdhy.cloudfront.net/562321b/651fcbd38b087679e2902751f40bc5ce.jpg,,
Foyer,Comfort,false,"The textured finish in this sliding wardobe is currently in vogue and fast-moving! Combined with lacquered glass or solid colours, it is set to make your master bedroom a personal sanctuary. The loft above gives you ample storage for boxes, suitcases, and more!","11'8"" X 13'7""",Sliding Wardrobe,Pre-laminated Particle Board (PLPB) + Particle Board,Suede Finish: Midnight Grey; Texture Finish: Pristine Wood,"1,69,915",http://d7gpgy8svgdhy.cloudfront.net/562321b/651fcbd38b087679e2902751f40bc5ce.jpg,,
Dining Room,Luxury,false,"The master bedroom is designed with the Zen theme in mind. The Asian influence can be seen in the use of contrasting wood grains, colours and patterns. We've put in a beautiful 2-door Armadio with internal drawers and shelves. The sliding doors will keep your room looking spacious. It has been designed to ensure your private space is also the retreat you need at the end of the day. The space is designed to create tranquility and relaxation.","12'0"" X 14’4""",2-Door Armadio Wardrobe,Pre-laminated Particle Board (PLPB) + MDF for Armadio,Suede Finish: Pure Oak; High Gloss Finish: Mediterranean Oak,"1,65,830",http://d7gpgy8svgdhy.cloudfront.net/562321b/651fcbd38b087679e2902751f40bc5ce.jpg,,
Kids Bedroom Vanity,Essential,true,Kids rooms should be bright and colourful; so we've picked marigold as the theme here. It's gender neutral and the wardrobe and loft can accommodate a lot of your children's stuff. No more fighting over who has more space!,"13’1"" X 10’0""",4-Door Hinged Wardrobe with Loft,Pre-laminated Particle Board (PLPB) + Particle Board,"Suede Finish: Marigold, Royal White","76,263",http://d7gpgy8svgdhy.cloudfront.net/562321b/c6b7dc06ca5570e5596b1b8cf020cd27.jpg,,
Kids Bedroom Study,Comfort,false,"Contemporary in design with a pop of colour, this wardrobe will suit your child's bright and bubbly personality. The attached study unit gives them enough space for books and a desktop. Why shop for individual units for your child's room when we have great solutions like this that fits in your budget?","11'2"" X 13'1""",Hinged Wardrobe with Study,Pre-laminated Particle Board (PLPB) + Particle Board,"High Gloss: Marigold, Frosty White","97,133",http://d7gpgy8svgdhy.cloudfront.net/562321b/c6b7dc06ca5570e5596b1b8cf020cd27.jpg,,
Master Bedroom Vanity,Luxury,false,"The master bedroom is designed with the Zen theme in mind. The Asian influence can be seen in the use of contrasting wood grains, colours and patterns. We've put in a beautiful 2-door Armadio with internal drawers and shelves. The sliding doors will keep your room looking spacious. It has been designed to ensure your private space is also the retreat you need at the end of the day. The space is designed to create tranquility and relaxation.","12'0"" X 14’4""",2-Door Armadio Wardrobe,Pre-laminated Particle Board (PLPB) + MDF for Armadio,Suede Finish: Pure Oak; High Gloss Finish: Mediterranean Oak,"1,65,830",http://d7gpgy8svgdhy.cloudfront.net/562321b/651fcbd38b087679e2902751f40bc5ce.jpg,,
Guest Bedroom,Essential,true,We've combined the entertainment unit and crockery display with one stylish swoop! This solution works best when there's a space constraint. But we've given you plenty of storage and display area with this unit. Keep the display minimal and classy and watch your guests swoon over it.,"9’1"" X 11’2""","Wall-mounted Shelves, Open Units, Base Shutter Unit and Crockery Unit",Pre-laminated Particle Board (PLPB) + Particle Board,"Suede Finish: Moldau Acacia Brown, Champagne","37,116",http://d7gpgy8svgdhy.cloudfront.net/562321b/034440c0de1f632504b268ef525db6af.jpg,,
,Comfort,false,"This chic entertainment unit just made movie nights more exciting. The panelling provided hides the unsightly tangle of wires we usually have behind the TV. You can stow away your DVDs, remotes and other accessories in the drawers in the base unit, which are handle-less. You can also display your favourite books or memorablia on the open shelves.","9'1"" X 10'6""",Base-mounted TV unit and Open Units,Pre-laminated Particle Board (PLPB) + Particle Board,Suede Finish: Moldau Acacia Brown; High Gloss: Champagne,"73,792",http://d7gpgy8svgdhy.cloudfront.net/562321b/034440c0de1f632504b268ef525db6af.jpg,,
,Luxury,false,"The master bedroom is designed with the Zen theme in mind. The Asian influence can be seen in the use of contrasting wood grains, colours and patterns. We've put in a beautiful 2-door Armadio with internal drawers and shelves. The sliding doors will keep your room looking spacious. It has been designed to ensure your private space is also the retreat you need at the end of the day. The space is designed to create tranquility and relaxation.","12'0"" X 14’4""",2-Door Armadio Wardrobe,Pre-laminated Particle Board (PLPB) + MDF for Armadio,Suede Finish: Pure Oak; High Gloss Finish: Mediterranean Oak,"1,65,830",http://d7gpgy8svgdhy.cloudfront.net/562321b/651fcbd38b087679e2902751f40bc5ce.jpg,,
,Essential,true,"Compact, but highly efficient is what urban homes need. HomeLane's foyer unit is tailormade for your Durga home. Apart from storing around 10 pairs of footwear, you can also use it as a seater.","4’7"" X 5’11""",Base-mounted Foyer Shutter Unit,Pre-laminated Particle Board (PLPB) + Particle Board,"Suede Finish: Moldau Acacia Brown, Champagne","11,175",http://d7gpgy8svgdhy.cloudfront.net/562321b/f09397892be7212a1d03df584b4d57b9.jpg,,
,Comfort,false,Now this is what we call a warm welcome! The shoe rack can hold over 5 pairs of shoes. You can turn this into a seater by topping it off with a cushion.,"4'7"" X 5'11""",Base-mounted Foyer Shutter Unit,Pre-laminated Particle Board (PLPB) + Particle Board,Suede Finish: Moldau Acacia Brown; High Gloss: Champagne,"18,336",http://d7gpgy8svgdhy.cloudfront.net/562321b/f09397892be7212a1d03df584b4d57b9.jpg,,
,Luxury,false,"The master bedroom is designed with the Zen theme in mind. The Asian influence can be seen in the use of contrasting wood grains, colours and patterns. We've put in a beautiful 2-door Armadio with internal drawers and shelves. The sliding doors will keep your room looking spacious. It has been designed to ensure your private space is also the retreat you need at the end of the day. The space is designed to create tranquility and relaxation.","12'0"" X 14’4""",2-Door Armadio Wardrobe,Pre-laminated Particle Board (PLPB) + MDF for Armadio,Suede Finish: Pure Oak; High Gloss Finish: Mediterranean Oak,"1,65,830",http://d7gpgy8svgdhy.cloudfront.net/562321b/651fcbd38b087679e2902751f40bc5ce.jpg,,
,Essential,true,We've combined the entertainment unit and crockery display with one stylish swoop! This solution works best when there's a space constraint. But we've given you plenty of storage and display area with this unit. Keep the display minimal and classy and watch your guests swoon over it.,"11’7"" X 15’7""","Wall-mounted Shelves, Open Units, Base Shutter Unit and Crockery Unit",Pre-laminated Particle Board (PLPB) + Particle Board,"Suede Finish: Moldau Acacia Brown, Champagne","37,116",http://d7gpgy8svgdhy.cloudfront.net/562321b/034440c0de1f632504b268ef525db6af.jpg,,
,Comfort,false,"An exposed wash basin in the living room can be quite unsightly. We propose you conceal all the plumbing with our vanity unit design. Additionally, you can store hand towels, soap and cleaning agents in the cabinet below. The unit has been designed to match the rest of the interiors.","11'8"" X 18'0""",Wall-mounted Crockery Unit with Suspended Drawers and a Combination of Open and Closed Units,Pre-laminated Particle Board (PLPB) + Particle Board,Suede Finish: Moldau Acacia Brown; High Gloss: Champagne,"8,661",http://d7gpgy8svgdhy.cloudfront.net/562321b/034440c0de1f632504b268ef525db6af.jpg,,
,Luxury,false,"The master bedroom is designed with the Zen theme in mind. The Asian influence can be seen in the use of contrasting wood grains, colours and patterns. We've put in a beautiful 2-door Armadio with internal drawers and shelves. The sliding doors will keep your room looking spacious. It has been designed to ensure your private space is also the retreat you need at the end of the day. The space is designed to create tranquility and relaxation.","12'0"" X 14’4""",2-Door Armadio Wardrobe,Pre-laminated Particle Board (PLPB) + MDF for Armadio,Suede Finish: Pure Oak; High Gloss Finish: Mediterranean Oak,"1,65,830",http://d7gpgy8svgdhy.cloudfront.net/562321b/651fcbd38b087679e2902751f40bc5ce.jpg,,
,Essential,true,Bathrooms are a splash zone; so we've made the vanity unit waterproof with boiling waterproof ply. Store all your toiletries and towels in this cabinet. It also comes with the mirror.,"14'5"" X 12'5""",Vanity Unit ,Boiling Waterproof Ply + Boiling Waterproof Ply,Suede Finish: Champagne,"16,959",http://d7gpgy8svgdhy.cloudfront.net/562321b/0088da5c3f8e76ed2c4ddd94b5d685d8.jpg,,
,Comfort,false,"The perfect addition to the master bedroom, the colours of this dresser unit complement the wardrobe. Now you have space for your daily essentials, makeup and jewellery.","11'8"" X 13'7""",Dresser Unit with Mirror,Pre-laminated Particle Board (PLPB) + Particle Board,Suede Finish: Midnight Grey; Texture Finish: Pristine Wood,"88,301",http://d7gpgy8svgdhy.cloudfront.net/562321b/0088da5c3f8e76ed2c4ddd94b5d685d8.jpg,,
,Luxury,false,"The master bedroom is designed with the Zen theme in mind. The Asian influence can be seen in the use of contrasting wood grains, colours and patterns. We've put in a beautiful 2-door Armadio with internal drawers and shelves. The sliding doors will keep your room looking spacious. It has been designed to ensure your private space is also the retreat you need at the end of the day. The space is designed to create tranquility and relaxation.","12'0"" X 14’4""",2-Door Armadio Wardrobe,Pre-laminated Particle Board (PLPB) + MDF for Armadio,Suede Finish: Pure Oak; High Gloss Finish: Mediterranean Oak,"1,65,830",http://d7gpgy8svgdhy.cloudfront.net/562321b/0088da5c3f8e76ed2c4ddd94b5d685d8.jpg,,
,Essential,true,"Complementing the wardobe, we have a marigold-based study unit here, replete with shelves and drawers for books and stationery. Pick out two chairs and your kids are all set!","13’1"" X 10’0""","Study Table with Drawers, Wall-mounted Shelves and Cabinet",Pre-laminated Particle Board (PLPB) + Particle Board,"Suede Finish: Marigold, Frosty White","27,109",http://d7gpgy8svgdhy.cloudfront.net/562321b/72d27f0e3294f47010af57fb1b1a0d8f.jpg,,
,Comfort,false,"This study room can be used as a home office/library/guest room. It's something for the whole family to use. Add a sofa-cum-bed and use it when guests come to stay over. The wardrobe gives you ample space for your extra linen and towels. It's a perfect setup for those who work from home. With ample sunlight flooding in, the design ushers in great energy as you work.","10'1"" X 8'10""",Hinged Wardrobe with Study,Pre-laminated Particle Board (PLPB) + Particle Board,Suede Finish: Moldau Acacia Cream; High Gloss: Dark Citrus,"88,301",http://d7gpgy8svgdhy.cloudfront.net/562321b/72d27f0e3294f47010af57fb1b1a0d8f.jpg,,
,Luxury,false,"The master bedroom is designed with the Zen theme in mind. The Asian influence can be seen in the use of contrasting wood grains, colours and patterns. We've put in a beautiful 2-door Armadio with internal drawers and shelves. The sliding doors will keep your room looking spacious. It has been designed to ensure your private space is also the retreat you need at the end of the day. The space is designed to create tranquility and relaxation.","12'0"" X 14’4""",2-Door Armadio Wardrobe,Pre-laminated Particle Board (PLPB) + MDF for Armadio,Suede Finish: Pure Oak; High Gloss Finish: Mediterranean Oak,"1,65,830",http://d7gpgy8svgdhy.cloudfront.net/562321b/72d27f0e3294f47010af57fb1b1a0d8f.jpg,,
,Essential,true,Bathrooms are a splash zone; so we've made the vanity unit waterproof with boiling waterproof ply. Store all your toiletries and towels in this cabinet. It also comes with the mirror.,"5’3"" X 8’0""",Vanity Unit,Boiling Waterproof Ply + Boiling Waterproof Ply,Suede Finish: Champagne,"16,959",http://d7gpgy8svgdhy.cloudfront.net/562321b/0088da5c3f8e76ed2c4ddd94b5d685d8.jpg,,
,Comfort,false,"Fully waterproof, this vanity unit comes with the mirror. The cabinet can hold your toiletries and cleaning agents. The finish is easy to cleanm keeping off mold.","10'1"" X 8'10""",Base Unit and Mirror,Boiling Waterproof Ply,Suede Finish: Brazilian Walnut,"88,301",http://d7gpgy8svgdhy.cloudfront.net/562321b/0088da5c3f8e76ed2c4ddd94b5d685d8.jpg,,
,Luxury,false,"The master bedroom is designed with the Zen theme in mind. The Asian influence can be seen in the use of contrasting wood grains, colours and patterns. We've put in a beautiful 2-door Armadio with internal drawers and shelves. The sliding doors will keep your room looking spacious. It has been designed to ensure your private space is also the retreat you need at the end of the day. The space is designed to create tranquility and relaxation.","12'0"" X 14’4""",2-Door Armadio Wardrobe,Pre-laminated Particle Board (PLPB) + MDF for Armadio,Suede Finish: Pure Oak; High Gloss Finish: Mediterranean Oak,"1,65,830",http://d7gpgy8svgdhy.cloudfront.net/562321b/0088da5c3f8e76ed2c4ddd94b5d685d8.jpg,,
,Essential,true,"Your guests deserve a comfortable, yet classy room. This 4-door wardrobe can hold all their essentials when they visit and gives you ample space to store your linen, towels and extra toiletries. We're also added a mirror to match so that you don't have to go looking elsewhere for it.","11’2"" X 13’1""",4-Door Hinged Wardrobe with Mirror,Pre-laminated Particle Board (PLPB) + Particle Board,Suede Finish: Balinese Pine; High Gloss: Champagne,"68,817",http://d7gpgy8svgdhy.cloudfront.net/562321b/521c6418d6db7f995fd205c1f4a3f283.jpg,,
,Comfort,false,"This versatile unit is a perfect addition to your Durga Petals home, fitting snugly into the corner. Use it as a Pooja Unit or to display pictures and souvenirs you've collected from around the world. The colours fit in with the living and dining room design too!","10'1"" X 8'10""",Wall-mounted Prayer Unit,Pre-laminated Particle Board (PLPB) + Particle Board,Suede Finish: Moldau Acacia Brown; High Gloss: Champagne,"88,301",http://d7gpgy8svgdhy.cloudfront.net/562321b/521c6418d6db7f995fd205c1f4a3f283.jpg,,
,Luxury,false,"The master bedroom is designed with the Zen theme in mind. The Asian influence can be seen in the use of contrasting wood grains, colours and patterns. We've put in a beautiful 2-door Armadio with internal drawers and shelves. The sliding doors will keep your room looking spacious. It has been designed to ensure your private space is also the retreat you need at the end of the day. The space is designed to create tranquility and relaxation.","12'0"" X 14’4""",2-Door Armadio Wardrobe,Pre-laminated Particle Board (PLPB) + MDF for Armadio,Suede Finish: Pure Oak; High Gloss Finish: Mediterranean Oak,"1,65,830",http://d7gpgy8svgdhy.cloudfront.net/562321b/521c6418d6db7f995fd205c1f4a3f283.jpg,,