allrooms.roomtype,allrooms.priceversions.priceversion,allrooms.priceversions.available,allrooms.priceversions.description,allrooms.priceversions.dimension,allrooms.priceversions.productlist,allrooms.priceversions.corematerial,allrooms.priceversions.finish,allrooms.priceversions.price,allrooms.priceversions.roomtype,allrooms.priceversions.image,apartment,blitzproject
Kitchen,Essential,true,"Taking into account ample light flooding the kitchen, we've kept the kitchen simple and sober-toned. The Irish Walnut makes it a beautiful space to create your culinary treasures in. Functionality is one of its high selling features. We've designed a combination of open and closed units for display and storage. There are also plenty of drawers and cabinets for your condiments, crockery and then some!",12’0” X 10’0”,Base Units and Wall Units,Boiling Water Ply (BWP) + Boiling Water Ply (BWP),"Suede Finish: Irish Walnut, Blackcurrant","1,65,999",Kitchen,http://d7gpgy8svgdhy.cloudfront.net/e511867/4f7193651f6d1e0c6a03600098f0914f.jpg,1945,blitz-windermere
Master Bedroom,Comfort,true,"This kitchen has been designed to remind you of meadows, freshness, lemon tarts and warm summers. The kitchen cabinets are a combination of Dove Grey and Marigold.;  The primary dado tile is a light grey one with marble texture and grey printed tiles are used as highlighters. This is the ideal palette for your culinary experiments. It's also packed with plenty of storage for all your cookware and condiments. It's also easy to clean and maintain with suede finish laminates. This kitchen comes recommended by our expert designers for you and your family!",12’0” X 9’0”,Base Units and Wall Units,Boiling Water Ply (BWP) + Boiling Water Ply (BWP),"Suede Finish: Dove Grey, Marigold","1,77,999",Kitchen,http://d7gpgy8svgdhy.cloudfront.net/e511867/1c6786a592b5bcc893b5be8e10ab7e6f.jpg,,
Kids Bedroom,Luxury,true,"We've designed this kitchen with a Modern Minimalist perspective. That's why we've opted for Brazilian Walnut cabinets at the bottom and kept the top cabinets white. That makes the kitchen look spacious. This handle-less kitchen with plenty of storage is ideal for an family of 4 or more! So stock up on condiments, provisions and snacks for the entire family. When you have plenty of storage space, it helps keep your counter free for chopping and cooking. The glass shutters have been included to help you show off your precious China. You will enjoy recreating your mother's recipes in this fully functional kitchen.",12’0” X 9’0”,Base Units and Wall Units,Boiling Water Ply (BWP) + Boiling Water Ply (BWP),Suede Finish: Brazilian Walnut;  High Gloss: Frosty White,"2,57,999",Kitchen,http://d7gpgy8svgdhy.cloudfront.net/e511867/e4cf94ca83a18eda920e39d4cdc7f598.jpg,,
Living Room,Essential,true,The 4-door hinged wardrobe in Auburn Oak and Champagne also functions as a dresser unit. The contrast of the rich grained auburn oak laminate and light champagne laminate turns the room into a classy space. We've included external drawers too for your bags and footwear and added a mirror to the wardrobe door. This is all you need to get started in your personal haven.,12’0” X 15’0”,"4-door Hinged Wardrobe, Dressing Mirror and Drawers",Commercial Ply + Block Board,"Suede Finish: Champagne, Auburn Oak","71,999",Master Bedroom,http://d7gpgy8svgdhy.cloudfront.net/e511867/99ecdb1ee80c1bb15c467d01a48a8589.jpg,,
Foyer,Comfort,true,"We've fitted your master bedroom with a functional hinged wardrobe that is equipped with ample storage, hanging space, loft and external drawers to store footwear.;  The dressing unit comprises a single drawer and mirror with frame mounted on the wall. The space below dressing unit can be utilised to keep a store-bought pouf.;  The exposed brick texture on wall, abstract fabric pattern and monochrome paintings complete the contemporary look we were aiming for. You can do up this room in your own unique way.",12’0” X 15’0”,"4-door Hinged Wardrobe, Dressing Mirror and Drawers",Commercial Ply + Block Board,Suede Finish: Cafe Walnut;  High Gloss: Blackcurrant,"93,999",Master Bedroom,http://d7gpgy8svgdhy.cloudfront.net/e511867/845cbaf94ce778ba1b5acb0ad1486855.jpg,,
Dining Room,Luxury,true,"Behold! HomeLane's masterpiece, the Armadio! We think the master bedroom deserves the elegant and contemporary Armadio sliding wardrobe with floor-to-ceiling shutters. This wardrobe is not just good looking; it gives you plenty of storage space by combining the loft as well. Do up the interiors with drawers and hanging space for all your clothes and accessories. Our designer will also help you find accessories like laundry baskets and garment lifts in the market. The mirror shutters make your room look bigger and lightens the space by reflecting light from the balcony. Enjoy your little haven at home.",12’0” X 15’0”,"Armadio Wardrobe, Loft",Commercial Ply + Commercial Ply + Mirror on Shutter,"Suede Finish: Brazilian Walnut, Mirror Finish","1,88,999",Master Bedroom,http://d7gpgy8svgdhy.cloudfront.net/e511867/7d7ac9e9fbe13114ca155762db076e92.jpg,,
Vanity Unit,Essential,true,"The richness of Irish Cream and brightness of marigold laminate lends a stunning contrast to this wardrobe and dresser in the children’s bedroom. It also comes with plenty of storage space for two. Added to this is a dresser with mirror. There are many interesting elements you can include in this space, like a modern lounge chair, pin-up boards, comfortable study table and upholstered study chair in this bedroom. The wallpaper has a unique abstract pattern in shades of yellow, white and grey. The two-tone fabric curtain with pendant lights complete the look. Gift your kids this room design and see how excited this can get them.",12’0” X 120”,"4-door Hinged Wardrobe, Dressing Mirror and Drawers",Commercial Ply + Block Board,"Suede Finish: Royal White, Marigold","93,999",Kids Bedroom,http://d7gpgy8svgdhy.cloudfront.net/e511867/b105845d7e3a1a72cc2d80dc0517e105.jpg,,
Guest Bedroom,Comfort,true,"Young adults need a space that let's them explore their myriad talents and relax after a tiring day of classes and other activities. The wallpaper, fabrics and colours have been selected to appeal to young adults. We've added a wardrobe with mirror on the shutter and external drawers for your kids to store all their clothes and shoes. The loft will handle all the stuff they want to stow away. Get this wardrobe for your kids room today!",12’0” X 120”,"4-door Hinged Wardrobe, Dressing Mirror and Drawers",Commercial Ply + Block Board,Suede Finish: Pure Oak;  Suede Finish: Champagne,"66,999",Kids Bedroom,http://d7gpgy8svgdhy.cloudfront.net/e511867/576c3ef0ad6158062603d16b156df4d5.jpg,,
,Luxury,true,"Soft and gender-neutral, the kids bedroom has been designed for the quintessential teenager. The Armadio would give them space for all their clothes and shoes. The Armadio also eliminates the need to install a mirror. Your kids would love to unwind, study and explore their talents in this room. We can also add a study table and book shelf on one side of the bed so that they can store their books and also focus on studies. We're in love with the colours and the playfulness of the room! Aren't you?",12’0” X 120”,"Armadio Wardrobe, Loft",Commercial Ply + Commercial Ply + Mirror on Shutter,Suede Finish: Orchard Delight;  High Gloss: Frosty White;  White Lacquered Glass,"1,61,999",Kids Bedroom,http://d7gpgy8svgdhy.cloudfront.net/e511867/d4683bb81d30d14824d76d23ba117734.jpg,,
,Essential,true,"This entertainment unit is very compact in design with just the right amount of space for display and storage. This is aligned along the partition of floating shelves which separates the living and dining areas of your home. Functional and space-saving, this is just what you need.",12’0” X 16’0”,"Base-mounted Drawer and Open Units, Wall Units, Open Shelf and Skirting Base",Commercial Ply + Commercial Ply,"Suede Finish: Irrish Cream, Blackcurrant","22,999",Living Room,http://d7gpgy8svgdhy.cloudfront.net/e511867/87adf699b6ef07be228db3c5d7e9ad97.jpg,,
,Comfort,true,"We wanted to create a cosy atmosphere for your living room — for guests and your family! The entertainment unit is a contrast of dark Balinese Pine and Champagne. The design combines open and closed cabinets for the stuff you want to store and the ones you want to show off. Add a floor lamp, antique vases, a distressed blue coffee table and a rich upholstered couch to add character to the living area. We also picked out a beige wallpaper with delicate motifs. The entire area is amply lit by the large french windows.",12’0” X 16’0”,"Base-mounted Drawer and Open Units, Wall Units, Open Shelf and Skirting Base",Commercial Ply + Commercial Ply,"Suede Finish: Champagne, Balinese Pine","50,999",Living Room,http://d7gpgy8svgdhy.cloudfront.net/e511867/b7f480438f639c52ea320b1128b5e23f.jpg,,
,Luxury,true,"With most beautiful homes, the biggest issue most homeowners face in the living room is that tangled mess of wires behind the TV. Our design takes care of that detail and does it in style! The combination of open and closed units gives you enough space for the stuff you want to show off like trophies or memorablia, and the stuff you'd rather hide like batteries and remote controls. This design fits right into your living space. So now you'll enjoy movie nights with your family even more!",12’0” X 16’0”,"Base-mounted Drawer and Open Units, Wall Units, Open Shelf and Skirting Base",Commercial Ply + Commercial Ply,"Suede Finish: Irish Cream, Blackcurrant","43,999",Living Room,http://d7gpgy8svgdhy.cloudfront.net/e511867/035b37a56231c0d6d6c83bc7cc4c18d9.jpg,,
,Essential,true,"With a storage capacity of 10-15 pairs of shoes, this foyer unit fits right into the entrance of your home. There's room for display and shoes you wear often are easily accessible. Display some pictures or curios, add a bowl for keys and you're all set.","4’9” X 4’9""",Base Shutter and Medium Tall Unit,Commercial Ply + Commercial Ply,Suede Finish: Balinese Pine,"25,999",Foyer,http://d7gpgy8svgdhy.cloudfront.net/e511867/8f04c7a7b69cc0303cae52617ff30bdb.jpg,,
,Comfort,true,This is one addition to your home you don't want to skimp on. The cosy foyer unit in dark wood grains is offset by the rich cream of the walls. It comes with storage for at least 10 pairs of footwear and a drawer for other things you want to grab on your way out. Top it off with a cushion to make a seater. The vintage-themed paintings and select decor should complete the look.,4’9” X 4’9”,Base Shutter and Medium Tall Unit,Commercial Ply + Commercial Ply,"High Gloss: Frosty White, Balinese Pine","23,999",Foyer,http://d7gpgy8svgdhy.cloudfront.net/e511867/42802b002547655e9de736555e0dbd37.jpg,,
,Luxury,true,The foyer unit has been designed to accommodate both footwear and also store your newspapers and magazines. The low height of the shoe rack acts as a seater too. Sonow you can sit down and wear your shoes before you leave for the day!,"4’9” X 4’9""",Base Shutter and Medium Tall Unit,Commercial Ply + Commercial Ply,"Suede Finish: Champagne, Balinese Pine","22,999",Foyer,http://d7gpgy8svgdhy.cloudfront.net/e511867/d96793c57647fdb1986f1b922e8a04b8.jpg,,
,Essential,false,"We gave practical design a stunning finish with this crockery unit. The shutter and drawer unit serves as storage unit for your plates and cups. It can also be used to store small appliances like a toaster or kettle. The glass shutter unit is for display and storage of crockery, tableware and your fine China! A must-have for your home!",12’0” X 16’0”,"Base-mounted Medium Tall Unit, Wall-mounted Drawer Unit with a Combination of Open and Closed Wall Units",Commercial Ply + Commercial Ply,"Suede Finish: Irish Walnut, Black","36,999",Dining Room,http://d7gpgy8svgdhy.cloudfront.net/e511867/2fa3830eceef9357ca1693f478b53bbc.jpg,,
,Comfort,true,"Sleek in its appearance and functional in design, this crockery unit occupies minimal space. It provides adequate space for your napkins and cutlery, and has ample display space for your wine glasses and mugs. Show off this unit to your guests when they visit for dinner!",12’0” X 16’0”,"Base-mounted Medium Tall Unit, Wall-mounted Drawer Unit with a Combination of Open and Closed Wall Units",Commercial Ply + Commercial Ply,Suede Finish: Brazilian Walnut,"34,999",Dining Room,http://d7gpgy8svgdhy.cloudfront.net/e511867/2fa3830eceef9357ca1693f478b53bbc.jpg,,
,Luxury,true,"The vanity comprises a suspended base unit with mirror on frame on the wall. The unit is waterproof, so splash away without worrying about ruining the wood.",11’0” X 13’0”,Vanity Unit,Boiling Water Ply (BWP) + Boiling Water Ply (BWP),Suede Finish: Frosty White,"18,999",Dining Room,http://d7gpgy8svgdhy.cloudfront.net/e511867/f11b641df6d3ea4f697af26d3f61c05d.jpg,,
,Essential,false,"Adding the cabinet to your vanity ensures that the plumbing is concealed and you also get storage space for toiletries and towels. With a mirror to boot, the vanity is elegant and waterproof!",11’0” X 13’0”,Vanity Unit,Boiling Water Ply (BWP) + Boiling Water Ply (BWP),"Suede Finish: Savannah Cherry, Dark Citrus","18,999",Vanity Unit,http://d7gpgy8svgdhy.cloudfront.net/e511867/d24880b6d0f677217fdb7e37b91eeeb9.jpg,,
,Comfort,true,"The wardrobe in the guest room has been designed as a simple and functional installation. It comes with a mirror on the shutter, three-feet-wide external drawers and plenty of internal shelves for storage. The space beside the wardrobe can be used for lounge seater or even a pouf. Go ahead, get this design to set all your guests at ease when they come to stay over.",11’0” X 13’0”,"4-door Hinged Wardrobe, Dressing Mirror and Drawers",Commercial Ply + Block Board,"Suede Finish: Nogal Walnut, Royal White","79,999",Vanity Unit,http://d7gpgy8svgdhy.cloudfront.net/e511867/d24880b6d0f677217fdb7e37b91eeeb9.jpg,,
,Luxury,true,This wardrobe we designed for your guest bedroom in white and light wood shades lends a European feel to the room. Your guests can comfortably store their belongings in the two-door wardrobe with ample hanging space and shelves. The mirror on shutter and external drawers act as a dressing unit. We'd say you're all set to invite people to stay over!,,"3-door Hinged Wardrobe, Dressing Mirror and Drawers",Commercial Ply + Block Board,"Suede Finish: Balaniese Pine, Doredos Pine;  Mirror Finish","69,999",Vanity Unit,http://d7gpgy8svgdhy.cloudfront.net/e511867/bc4824b181e6dba8b82a29bc097715a5.jpg,,
,Essential,true,"For the guest room, we've combined the Armadio wardrobe and a study unit to save space and keep the room spacious. We've adopted a simple and classic approach by using Mediterranean Oak and Doredos Pine. There's ample space for guests to store their clothes and for you to stow away extra bed linen and towels.",,"Armadio Wardrobe, Loft",Commercial Ply + Commercial Ply + Mirror on Shutter,,"1,38,999",Guest Bedroom,http://d7gpgy8svgdhy.cloudfront.net/e511867/0436279735eda506b9343012126a929e.jpg,,
,Comfort,true,,,,,,,Guest Bedroom,http://d7gpgy8svgdhy.cloudfront.net/e511867/af42e1b92c9b2fe50ef7dbe7644ec96e.jpg,,
,Luxury,true,,,,,,,Guest Bedroom,http://d7gpgy8svgdhy.cloudfront.net/e511867/3733ac3f27aabc3bb2e15cb1b2353dca.jpg,,
Kitchen,Essential,true,"This L shaped kitchen with that pop of Marigold is visually light but great on storage. It’s an ideal space to indulge your culinary experiments. The design has assigned adequate space for display, crockery and snacks. With plenty of natural light and light-coloured laminates, the kitchen looks more spacious. This design can be all yours if you partner with HomeLane for your interiors.",12’ X 10’,"Base Units, Wall Units and Open Units",Boiling Waterproof Ply (BWP) + Boiling Waterproof Ply (BWP),"Suede Finish: Aurban Oak, Irish Cream","1,56,999",Kitchen,http://d7gpgy8svgdhy.cloudfront.net/e511867/505ba44ea9462a6adaa7c841d81774ac.jpg,1944,blitz-windermere
Master Bedroom,Comfort,true,"With a contemporary approach we've transformed your kitchen into a chef's dream! In contrasting shades, this design soaks in tonnes of natural light, Workflow is easily set in motion with dedicated spaces for everything, The bottom cabinets in Nice Wood ensure you have no smudges or traces of haldi or curry, The cabinets are easy to wipe clean and with a mix of open and closed units, great for display and storage!",12’ X 10’,"Base Units, Wall Units and Open Units",Boiling Water Ply (BWP) + Boiling Water Ply (BWP),"Suede Finish: Aurban Oak, Irish Cream","1,60,999",Kitchen,http://d7gpgy8svgdhy.cloudfront.net/e511867/5210e3d9abde50ee87925114132ff50b.jpg,,
Kids Bedroom,Luxury,true,"This L-shaped kitchen with that pop of shangrila is visually stunning and great on storage. We've built in good space for display, crockery and snacks. The finishes are long lasting and easy to clean and maintain. Picture yourself creating your culinary masterpieces in this kitchen!",12’ X 10’,"Base Units, Wall Units and Open Units",Boiling Waterproof Ply (BWP) + Boiling Waterproof Ply (BWP),"High Gloss: Champagne, Shangrila","1,89,999",Kitchen,http://d7gpgy8svgdhy.cloudfront.net/e511867/866446324dc908ebc9816b0e1caa6508.jpg,,
Living Room,Essential,true,"This colour combination of oak and slate on the 4-door wardrobe keeps the room visually light. There's also plenty of storage involved for your boxes and suitcases in the loft above. The mirror has been built in to help you save space. You can also store your makeup in the drawers below. If you're a small family just starting out, this should suit you just fine!",12’ X 15’,"4-door Hinged Wardrobe, Dressing Mirror and Drawers",Commercial Ply + Block Board,"Suede Finish: Pure Oak, Slate","84,999",Master Bedroom,http://d7gpgy8svgdhy.cloudfront.net/e511867/ddcb6ee77870f19f18b6608dc9c6ca48.jpg,,
Foyer,Comfort,true,"The master bedroom is packed with everything you could possibly need — wardrobe, study and entertainment unit, The wardrobe is a 4-door unit with tonnes of space for all your outfits and shoes, The lofts will easily accommodate extra boxes and suitcases leaving your room free of clutter,",12’ X 15’,"4-door Hinged Wardrobe, Dressing Mirror and Drawers",Commercial Ply + Block Board,Suede Finish: Pure Oak; High Gloss: Blackcurrant,"91,999",Master Bedroom,http://d7gpgy8svgdhy.cloudfront.net/e511867/d41c7e221f5ef36ba703394cfdf4b2f2.jpg,,
Dining Room,Luxury,true,Take a look at our pride — the Armadio wardrobe — which extends from the ceiling to the floor. This sliding beauty is meant for smaller rooms and adds glamour to the room.,12’ X 15’,Armardio Wardrobe with Dresser,Commercial Ply + Block Board,"High Gloss: Frosty White, Nogal Walnut","1,65,999",Master Bedroom,http://d7gpgy8svgdhy.cloudfront.net/e511867/4025fac558f1f4032241d951b7e2fe6e.jpg,,
Vanity Unit,Essential,true,Kids should always have a space that reflects their personality — vibrant and full of potential! We've kept the theme bright with marigold and champagne. Go a little crazy on the walls with wallpaper or decals and add a rug and duvet that matches. The wardrobe has enough space for two and comes with a loft too.,12' X 12',"4-door Hinged Wardrobe with Mirror, Drawer and Loft",Commercial Ply + Block Board,"Suede Finish: Champagne, Marigold","64,999",Kids Bedroom,http://d7gpgy8svgdhy.cloudfront.net/e511867/6577d2bb185ed874eea04f72dded4179.jpg,,
,Comfort,true,"We've made the kids room stylish yet comfortable with a 4-door wardrobe to fit all their clothes and shoes, The loft above can be used to store their chilhood memories safely, You can maintain a similar colour scheme with your bed covers and rugs,",12' X 12',"4-door Hinged Wardrobe with Mirror, Drawer and Loft",Commercial Ply + Block Board,Suede Finish: Nogal Walnut; High Gloss: Frosty White,"88,999",Kids Bedroom,http://d7gpgy8svgdhy.cloudfront.net/e511867/d41c7e221f5ef36ba703394cfdf4b2f2.jpg,,
,Luxury,true,The kids bedroom has 2-door hinged wardrobe units flanking a dressing unit in the centre. The loft spans the entire unit above the wardrobes and dresser unit. The neutral brown colour of Brazilian walnut keeps the overall colour scheme subtle. So there's plenty of space while keeping the room looking classy.,12' X 12',"4-door Hinged Wardrobe with Mirror, Drawer and Loft",Commercial Ply + Block Board,Suede Finish: Brazilian Walnut,"80,999",Kids Bedroom,http://d7gpgy8svgdhy.cloudfront.net/e511867/a51e5cadbe692e08cb399915ddec9707.jpg,,
,Essential,true,"Sleek and splendid, this entertainment unit has been built to occupy minimal space in the living room. The combination of open shelves and closed drawers strikes a good balance between display and storage. Hook up your TV and you're good to go for movie nights with the family.",12’ X 16’,Drawer Unit with a Combination of Open Wall Units and Shelves,Commercial Ply + Commercial Ply,"Suede Finish: Aurban Oak, Champagne","32,999",Living Room,http://d7gpgy8svgdhy.cloudfront.net/e511867/6b9c51dfbab929b4de595a65850cd3a8.jpg,,
,Comfort,true,"As you can see, our designers have used a minimalistic approach while designing your living room's entertainment unit, This space saving unit is stunning and gives you plenty of storage and display space, Mount your trophies and favourite paperbacks on the open shelves and store your DVDs and remotes in the drawers provided, Install your TV without the wires lying tangled up, The wood panelling takes care of it all,",12’ X16’,Suspended Drawers with Wall Units,Commercial Ply + Commercial Ply,Suede Finish: Nice Wood; High Gloss: Champagne,"27,999",Living Room,http://d7gpgy8svgdhy.cloudfront.net/e511867/47768ffa0d9b5b3c8b664ae1678d0b99.jpg,,
,Luxury,true,"The entertainment unit occupies very little space but is quite the stunner! It comes with display space and storage! All built into one, it's totally worth having in your home.",12’ X16’,Drawer Unit with a Combination of Open Wall Units and Shelves,Commercial Ply + Commercial Ply,"High Gloss: Frosty White, Berry Brunch","71,999",Living Room,http://d7gpgy8svgdhy.cloudfront.net/e511867/5775418d6197629fd2ee2f13eb631369.jpg,,
,Essential,true,This foyer shoe rack is equipped to hold 10-15 pairs of footwear. The colours set the tone to your apartment. Top off the shoerack with a cushion to make it a comfy seater. You should add a stunning mirror above the unit like we have for a dramatic effect and also to check yourself out before you leave!,4’9” X 4’9”,Base Shutter,Commercial Ply + Commercial Ply,Suede Finish: Auburn Oak,"10,999",Foyer,http://d7gpgy8svgdhy.cloudfront.net/e511867/1122f31183ca50f6d4093077a31f8d30.jpg,,
,Comfort,true,"We've followed a retro Indian theme to give indian touch to this foyer unit, It comes loaded with space for over 15 pairs of footwear and is the perfect addition to your foyer,",4’9” X 4’9”,Base Shutter with Drawer Unit,Commercial Ply + Commercial Ply,"Suede Finish: Brazilian Walnut, Champagne","13,999",Foyer,http://d7gpgy8svgdhy.cloudfront.net/e511867/513a092abaab8757065c13345614d18e.jpg,,
,Luxury,true,This subtle-toned foyer shoe rack is attached to the entertainment unit to save you precious space. It can hold up to 10 pairs of footwear and topped off with a cushion can be a perfect seater.,4’9” X 4’9”,Base Shutter,Commercial Ply + Commercial Ply,High Gloss: Frosty White,"12,999",Foyer,http://d7gpgy8svgdhy.cloudfront.net/e511867/02fbc85ca2fb2492ceb327a37d22586b.jpg,,
,Essential,false,"An exposed wash basin in the living room can be quite unsightly. We propose you conceal all the plumbing with our vanity unit design. Additionally, you can store hand towels, soap and cleaning agents in the cabinet below. The unit has been designed to match the rest of the interiors.","22'10.5"" X 12'0""",Under Counter Unit,Commercial Ply + Commercial Ply,Suede Finish: Irish Walnut,"8,661",Dining Room,http://d7gpgy8svgdhy.cloudfront.net/e511867/c0a459fb965c76e71f8038d09e3ad414.jpg,,
,Comfort,true,"The tall crockery unit with glass shutter comes with internal shelves for crockery storage and display, It is placed alongside the entertainment unit to save space, It's sleek and fits right in!",11’ X 12’,Drawer Unit with a Combination of Open Wall Units and Shutters,Commercial Ply + Commercial Ply,Suede Finish: Nice Wood; High Gloss: Champagne,"21,999",Dining Room,http://d7gpgy8svgdhy.cloudfront.net/e511867/034440c0de1f632504b268ef525db6af.jpg,,
,Luxury,true,"This crockery unit fits right into the corner adjacent to your dining table, granting easy access to dining ware and wine glasses! You also have some display room for some curios. The drawers can be used to store cutlery and napkins! Isn't this an amazing solution to your dining woes?",11’ X 12’,Drawer Unit with a Combination of Open Wall Units and Shutters,Commercial Ply + Commercial Ply,"Suede Finish: Aurban Oak, Champagne","30,999",Dining Room,http://d7gpgy8svgdhy.cloudfront.net/e511867/c7154174cf3e309e7aa6b0f6fa7d869f.jpg,,
,Essential,false,"Our designers like to keep it classy but modern. So they stuck to the wooden colour while designing the guest room. The huge wardrobe provides ample space for your guests staying over. You too can store your bed linen, towels and toiletries. Feel at home, this room says.","15'1"" X 11'6"" + 6'6"" X 5'9""",4-Door Hinged Wardrobe,Commercial Ply + Blockboard,Suede Finish: Brazilian Walnut,"88,301",Vanity Unit,http://d7gpgy8svgdhy.cloudfront.net/e511867/bc4824b181e6dba8b82a29bc097715a5.jpg,,
,Comfort,true,"We've protected the vanity unit with waterproof material, So splash away as much as you want! It has enough storage space for your toiletries and towels, We've added a matching mirror too!",6' X 5',Base Shutter Unit,Boiling Waterproof Ply (BWP) + Boiling Waterproof Ply (BWP),Suede Finish: Frosty White,"14,999",Vanity Unit,http://d7gpgy8svgdhy.cloudfront.net/e511867/bc4824b181e6dba8b82a29bc097715a5.jpg,,
,Luxury,true,"The vanity unit is waterproof and comes with plenty of room for your toiletries and towels. It comes with a matching mirror too. We kept it basic yet stylish, don't you think?",6' X 5',Push-to-Open Shutter Unit,Boiling Waterproof Ply (BWP) + Boiling Waterproof Ply (BWP),Suede Finish: Frosty White,"29,999",Vanity Unit,http://d7gpgy8svgdhy.cloudfront.net/e511867/bc4824b181e6dba8b82a29bc097715a5.jpg,,