rooms.roomtype,rooms.description,rooms.dimension,rooms.productlist,rooms.imageUrl,rooms.price,rooms.finish,rooms.corematerial,projectname,floorplantype,city
Kitchen,"This sleek kitchen is smart in design and functionality. The laminates don't stain easily and can be wiped clean after your culinary experiments. We've waterproofed the sink unit with boiling waterproof ply. There's ample space for all your appliances, utensils, jars of condiments and more! Just add the right internal accessories and you're good to go!","7"" x 10'11""",Kitchen Base / Wall Units,https://hlmicrosite.s3-ap-southeast-1.amazonaws.com/rajapushpa/0B_CRv-79BQ0sSDNfUHhoMW9VU2c.jpg,"1,15,609",Suede,Pre-laminated Particle Board ,Rajapushpa,W-1685,Hyderabad
Foyer,"Now this is what we call a warm welcome! With a storage capacity of 10-15 pairs of shoes, this foyer unit is basic, but high on functionality. There's room for display and shoes you wear often are easily accessible. Add some plants and wall hanging to the mix, and you're good to go!","5"" x 4""",Foyer Unit,https://hlmicrosite.s3-ap-southeast-1.amazonaws.com/rajapushpa/0B1vCUsj7UKBibG0yYWp3WHJTOXc.jpg,"5,403",Suede,Pre-laminated Particle Board ,,,
Drawing Room,"We've given the open shelves in your drawing room a rustic feel. You can stack your books, add some curios and memorabilia to the mix. Personalise it and own it!","11"" x 8'11""",Display,https://hlmicrosite.s3-ap-southeast-1.amazonaws.com/rajapushpa/0B1vCUsj7UKBiV1NfdE9iVlRXMDg.jpg,"6,476",Suede,Pre-laminated Particle Board ,,,
Living,This entertainment unit turns your living room into a recreation zone effortlessly. It is compact and the combination of open and closed units works for families - you can show off some things like trophies and memorablia and store the more boring manuals and remotes. Get a matching wallpaper and you're all set for good entertainment!,"9"" x 11'11""",Entertainment Unit,https://hlmicrosite.s3-ap-southeast-1.amazonaws.com/rajapushpa/0B1vCUsj7UKBiMF9VY2F6VWNrbzQ.jpg,"24,292",Suede:; High Gloss:,Pre-laminated Particle Board ,,,
Dining,"Similar to the entertainment unit, this crockery unit comes with enough room to hold your glassware, China and cutlery. If you decide to have an impromptu party, all you need is at hand. Go ahead, show off your beautiful new home design to your friends and family!","9"" x 9'15""",Crockery Unit,https://hlmicrosite.s3-ap-southeast-1.amazonaws.com/rajapushpa/0BxISVYw2HLFMXzlMWm5ielp2TGc.jpg,"27,421",Suede,Pre-laminated Particle Board ,,,
Master Bedroom,"We designed a basic and classy wardrobe for the master bedroom in Pure Oak and Shangrila. We’ve provided plenty of internal space within the wardrobe and in the loft. The drawers complete the wardrobe with the option of storing your cosmetics, watches and jewellery. The mirror on the shutter again contains your needs to one installation. An entertainment unit and study table to match can be added on request.","14"" x 11'11""",Hinged Wardrobe,https://hlmicrosite.s3-ap-southeast-1.amazonaws.com/rajapushpa/0BxISVYw2HLFMa3otV3EyNE1obmM.jpg,"67,473",Suede:; High Gloss:,Pre-laminated Particle Board ,,,
Bathroom,"Attractive and waterproof, this vanity is a must-have for your home! The cabinet not just gives you storage space for your towels and toiletries, it also covers up the plumbing with much style!","5"" x 1'9""",Vanity,https://hlmicrosite.s3-ap-southeast-1.amazonaws.com/rajapushpa/0BxISVYw2HLFMV2tXWmgwZHUyUWM.jpg,"16,955",Suede,Boiling Water Ply ,,,
Kids Bedroom,Your fun-loving kids would love this space done up in soothing gender-neutral shades. The wardrobe comes packed with storage space. Adjacent to it is the study with pencil drawers and open shelves. This is everything your children will need.,"11"" x 7'12""",Hinged Wardrobe,https://hlmicrosite.s3-ap-southeast-1.amazonaws.com/rajapushpa/0B1vCUsj7UKBieUdKaTZZUFNZdTg.jpg,"58,178",Suede,Pre-laminated Particle Board ,,,
Guest Bedroom,"The contemporary-themed guest bedroom is all the rage in the design world. The Dove Grey and American Walnut wardrobe is a combination for all seasons. We guarantee plenty of storage space, for you and your guests with our wardrobe design.","11"" x 12""",Hinged Wardrobe With Dresser,https://hlmicrosite.s3-ap-southeast-1.amazonaws.com/rajapushpa/0BxISVYw2HLFMT2hiV0xjblVBcXM.jpg,"50,535",Suede,Pre-laminated Particle Board ,,,